2021-03-25 11:24:57.2887 Info Message Template Auto Format enabled
2021-03-25 11:24:57.3065 Info Loading assembly: NLog.Web.AspNetCore
2021-03-25 11:24:57.3492 Info Adding target FileTarget(Name=alldata)
2021-03-25 11:24:57.3492 Info Adding target FileTarget(Name=otherFile-web)
2021-03-25 11:24:57.3823 Info Validating config: TargetNames=alldata, ConfigItems=44, FilePath=D:\Profiles\vinekumar\source\repos\WebAPI\WebAPI\bin\Debug\netcoreapp3.1\NLog.config
2021-03-25 11:24:57.3974 Warn Unused target detected. Add a rule for this target to the configuration. TargetName: otherFile-web
2021-03-25 11:24:57.4129 Info Configuration initialized.
2021-03-25 11:24:57.4174 Info NLog, Version=4.0.0.0, Culture=neutral, PublicKeyToken=5120e14c03d0593c. File version: 4.7.8.12686. Product version: 4.7.8+1a738710a3e2974972abafd94d9df40f6b58035f. GlobalAssemblyCache: False
2021-03-25 12:00:13.3998 Info Message Template Auto Format enabled
2021-03-25 12:00:13.4177 Info Loading assembly: NLog.Web.AspNetCore
2021-03-25 12:00:13.4614 Info Adding target FileTarget(Name=alldata)
2021-03-25 12:00:13.4614 Info Adding target FileTarget(Name=otherFile-web)
2021-03-25 12:00:13.4956 Info Validating config: TargetNames=alldata, ConfigItems=44, FilePath=D:\Profiles\vinekumar\source\repos\WebAPI\WebAPI\bin\Debug\netcoreapp3.1\NLog.config
2021-03-25 12:00:13.5060 Warn Unused target detected. Add a rule for this target to the configuration. TargetName: otherFile-web
2021-03-25 12:00:13.5202 Info Configuration initialized.
2021-03-25 12:00:13.5202 Info NLog, Version=4.0.0.0, Culture=neutral, PublicKeyToken=5120e14c03d0593c. File version: 4.7.8.12686. Product version: 4.7.8+1a738710a3e2974972abafd94d9df40f6b58035f. GlobalAssemblyCache: False
2021-03-25 17:38:09.7796 Info Message Template Auto Format enabled
2021-03-25 17:38:09.7985 Info Loading assembly: NLog.Web.AspNetCore
2021-03-25 17:38:09.8604 Info Adding target FileTarget(Name=alldata)
2021-03-25 17:38:09.8604 Info Adding target FileTarget(Name=otherFile-web)
2021-03-25 17:38:09.9013 Info Validating config: TargetNames=alldata, ConfigItems=44, FilePath=D:\Profiles\vinekumar\source\repos\WebAPI\WebAPI\bin\Debug\netcoreapp3.1\NLog.config
2021-03-25 17:38:09.9165 Warn Unused target detected. Add a rule for this target to the configuration. TargetName: otherFile-web
2021-03-25 17:38:09.9482 Info Configuration initialized.
2021-03-25 17:38:09.9561 Info NLog, Version=4.0.0.0, Culture=neutral, PublicKeyToken=5120e14c03d0593c. File version: 4.7.8.12686. Product version: 4.7.8+1a738710a3e2974972abafd94d9df40f6b58035f. GlobalAssemblyCache: False
2021-03-25 17:44:55.7276 Info Message Template Auto Format enabled
2021-03-25 17:44:55.7507 Info Loading assembly: NLog.Web.AspNetCore
2021-03-25 17:44:55.8068 Info Adding target FileTarget(Name=alldata)
2021-03-25 17:44:55.8149 Info Adding target FileTarget(Name=otherFile-web)
2021-03-25 17:44:55.8511 Info Validating config: TargetNames=alldata, ConfigItems=44, FilePath=D:\Profiles\vinekumar\source\repos\WebAPI\WebAPI\bin\Debug\netcoreapp3.1\NLog.config
2021-03-25 17:44:55.8623 Warn Unused target detected. Add a rule for this target to the configuration. TargetName: otherFile-web
2021-03-25 17:44:55.8840 Info Configuration initialized.
2021-03-25 17:44:55.8919 Info NLog, Version=4.0.0.0, Culture=neutral, PublicKeyToken=5120e14c03d0593c. File version: 4.7.8.12686. Product version: 4.7.8+1a738710a3e2974972abafd94d9df40f6b58035f. GlobalAssemblyCache: False
2021-03-26 14:36:04.2599 Info Message Template Auto Format enabled
2021-03-26 14:36:04.2868 Info Loading assembly: NLog.Web.AspNetCore
2021-03-26 14:36:04.3448 Info Adding target FileTarget(Name=alldata)
2021-03-26 14:36:04.3528 Info Adding target FileTarget(Name=otherFile-web)
2021-03-26 14:36:04.3999 Info Validating config: TargetNames=alldata, ConfigItems=44, FilePath=D:\Profiles\vinekumar\source\repos\WebAPI\WebAPI\bin\Debug\netcoreapp3.1\NLog.config
2021-03-26 14:36:04.4148 Warn Unused target detected. Add a rule for this target to the configuration. TargetName: otherFile-web
2021-03-26 14:36:04.4338 Info Configuration initialized.
2021-03-26 14:36:04.4338 Info NLog, Version=4.0.0.0, Culture=neutral, PublicKeyToken=5120e14c03d0593c. File version: 4.7.8.12686. Product version: 4.7.8+1a738710a3e2974972abafd94d9df40f6b58035f. GlobalAssemblyCache: False
2021-03-26 14:38:50.0319 Info Message Template Auto Format enabled
2021-03-26 14:38:50.0508 Info Loading assembly: NLog.Web.AspNetCore
2021-03-26 14:38:50.1022 Info Adding target FileTarget(Name=alldata)
2021-03-26 14:38:50.1102 Info Adding target FileTarget(Name=otherFile-web)
2021-03-26 14:38:50.1449 Info Validating config: TargetNames=alldata, ConfigItems=44, FilePath=D:\Profiles\vinekumar\source\repos\WebAPI\WebAPI\bin\Debug\netcoreapp3.1\NLog.config
2021-03-26 14:38:50.1729 Warn Unused target detected. Add a rule for this target to the configuration. TargetName: otherFile-web
2021-03-26 14:38:50.1908 Info Configuration initialized.
2021-03-26 14:38:50.1983 Info NLog, Version=4.0.0.0, Culture=neutral, PublicKeyToken=5120e14c03d0593c. File version: 4.7.8.12686. Product version: 4.7.8+1a738710a3e2974972abafd94d9df40f6b58035f. GlobalAssemblyCache: False
2021-03-26 14:42:43.9013 Info Message Template Auto Format enabled
2021-03-26 14:42:43.9184 Info Loading assembly: NLog.Web.AspNetCore
2021-03-26 14:42:44.0236 Info Adding target FileTarget(Name=alldata)
2021-03-26 14:42:44.0627 Info Adding target FileTarget(Name=otherFile-web)
2021-03-26 14:42:44.1235 Info Validating config: TargetNames=alldata, ConfigItems=44, FilePath=D:\Profiles\vinekumar\source\repos\WebAPI\WebAPI\bin\Debug\netcoreapp3.1\NLog.config
2021-03-26 14:42:44.3877 Warn Unused target detected. Add a rule for this target to the configuration. TargetName: otherFile-web
2021-03-26 14:42:44.4116 Info Configuration initialized.
2021-03-26 14:42:44.4116 Info NLog, Version=4.0.0.0, Culture=neutral, PublicKeyToken=5120e14c03d0593c. File version: 4.7.8.12686. Product version: 4.7.8+1a738710a3e2974972abafd94d9df40f6b58035f. GlobalAssemblyCache: False
2021-03-26 15:17:12.2491 Info Message Template Auto Format enabled
2021-03-26 15:17:12.2729 Info Loading assembly: NLog.Web.AspNetCore
2021-03-26 15:17:12.3698 Info Adding target FileTarget(Name=alldata)
2021-03-26 15:17:12.3767 Info Adding target FileTarget(Name=otherFile-web)
2021-03-26 15:17:12.4118 Info Validating config: TargetNames=alldata, ConfigItems=44, FilePath=D:\Profiles\vinekumar\source\repos\WebAPI\WebAPI\bin\Debug\netcoreapp3.1\NLog.config
2021-03-26 15:17:12.4245 Warn Unused target detected. Add a rule for this target to the configuration. TargetName: otherFile-web
2021-03-26 15:17:12.4420 Info Configuration initialized.
2021-03-26 15:17:12.4486 Info NLog, Version=4.0.0.0, Culture=neutral, PublicKeyToken=5120e14c03d0593c. File version: 4.7.8.12686. Product version: 4.7.8+1a738710a3e2974972abafd94d9df40f6b58035f. GlobalAssemblyCache: False
2021-03-26 15:20:03.6301 Info Message Template Auto Format enabled
2021-03-26 15:20:03.6619 Info Loading assembly: NLog.Web.AspNetCore
2021-03-26 15:20:03.7313 Info Adding target FileTarget(Name=alldata)
2021-03-26 15:20:03.7472 Info Adding target FileTarget(Name=otherFile-web)
2021-03-26 15:20:03.7766 Info Validating config: TargetNames=alldata, ConfigItems=44, FilePath=D:\Profiles\vinekumar\source\repos\WebAPI\WebAPI\bin\Debug\netcoreapp3.1\NLog.config
2021-03-26 15:20:03.7887 Warn Unused target detected. Add a rule for this target to the configuration. TargetName: otherFile-web
2021-03-26 15:20:03.8097 Info Configuration initialized.
2021-03-26 15:20:03.8187 Info NLog, Version=4.0.0.0, Culture=neutral, PublicKeyToken=5120e14c03d0593c. File version: 4.7.8.12686. Product version: 4.7.8+1a738710a3e2974972abafd94d9df40f6b58035f. GlobalAssemblyCache: False
2021-03-26 15:22:53.2423 Info Message Template Auto Format enabled
2021-03-26 15:22:53.3257 Info Loading assembly: NLog.Web.AspNetCore
2021-03-26 15:22:53.3917 Info Adding target FileTarget(Name=alldata)
2021-03-26 15:22:53.3998 Info Adding target FileTarget(Name=otherFile-web)
2021-03-26 15:22:53.4926 Info Validating config: TargetNames=alldata, ConfigItems=44, FilePath=D:\Profiles\vinekumar\source\repos\WebAPI\WebAPI\bin\Debug\netcoreapp3.1\NLog.config
2021-03-26 15:22:53.5583 Warn Unused target detected. Add a rule for this target to the configuration. TargetName: otherFile-web
2021-03-26 15:22:53.5954 Info Configuration initialized.
2021-03-26 15:22:53.6054 Info NLog, Version=4.0.0.0, Culture=neutral, PublicKeyToken=5120e14c03d0593c. File version: 4.7.8.12686. Product version: 4.7.8+1a738710a3e2974972abafd94d9df40f6b58035f. GlobalAssemblyCache: False
2021-03-26 15:23:05.3974 Info Message Template Auto Format enabled
2021-03-26 15:23:05.4143 Info Loading assembly: NLog.Web.AspNetCore
2021-03-26 15:23:05.4663 Info Adding target FileTarget(Name=alldata)
2021-03-26 15:23:05.4663 Info Adding target FileTarget(Name=otherFile-web)
2021-03-26 15:23:05.5102 Info Validating config: TargetNames=alldata, ConfigItems=44, FilePath=D:\Profiles\vinekumar\source\repos\WebAPI\WebAPI\bin\Debug\netcoreapp3.1\NLog.config
2021-03-26 15:23:05.5237 Warn Unused target detected. Add a rule for this target to the configuration. TargetName: otherFile-web
2021-03-26 15:23:05.5460 Info Configuration initialized.
2021-03-26 15:23:05.5550 Info NLog, Version=4.0.0.0, Culture=neutral, PublicKeyToken=5120e14c03d0593c. File version: 4.7.8.12686. Product version: 4.7.8+1a738710a3e2974972abafd94d9df40f6b58035f. GlobalAssemblyCache: False
2021-03-26 15:23:17.5425 Info AppDomain Shutting down. Logger closing...
2021-03-26 15:23:17.5651 Info Logger has been shut down.
2021-03-26 15:23:37.7241 Info Message Template Auto Format enabled
2021-03-26 15:23:37.7446 Info Loading assembly: NLog.Web.AspNetCore
2021-03-26 15:23:37.7982 Info Adding target FileTarget(Name=alldata)
2021-03-26 15:23:37.8060 Info Adding target FileTarget(Name=otherFile-web)
2021-03-26 15:23:37.8403 Info Validating config: TargetNames=alldata, ConfigItems=44, FilePath=D:\Profiles\vinekumar\source\repos\WebAPI\WebAPI\bin\Debug\netcoreapp3.1\NLog.config
2021-03-26 15:23:37.8531 Warn Unused target detected. Add a rule for this target to the configuration. TargetName: otherFile-web
2021-03-26 15:23:37.8722 Info Configuration initialized.
2021-03-26 15:23:37.8722 Info NLog, Version=4.0.0.0, Culture=neutral, PublicKeyToken=5120e14c03d0593c. File version: 4.7.8.12686. Product version: 4.7.8+1a738710a3e2974972abafd94d9df40f6b58035f. GlobalAssemblyCache: False
2021-03-26 15:26:16.8995 Info Message Template Auto Format enabled
2021-03-26 15:26:16.9216 Info Loading assembly: NLog.Web.AspNetCore
2021-03-26 15:26:16.9814 Info Adding target FileTarget(Name=alldata)
2021-03-26 15:26:16.9814 Info Adding target FileTarget(Name=otherFile-web)
2021-03-26 15:26:17.0256 Info Validating config: TargetNames=alldata, ConfigItems=44, FilePath=D:\Profiles\vinekumar\source\repos\WebAPI\WebAPI\bin\Debug\netcoreapp3.1\NLog.config
2021-03-26 15:26:17.0391 Warn Unused target detected. Add a rule for this target to the configuration. TargetName: otherFile-web
2021-03-26 15:26:17.0553 Info Configuration initialized.
2021-03-26 15:26:17.0614 Info NLog, Version=4.0.0.0, Culture=neutral, PublicKeyToken=5120e14c03d0593c. File version: 4.7.8.12686. Product version: 4.7.8+1a738710a3e2974972abafd94d9df40f6b58035f. GlobalAssemblyCache: False
2021-03-26 16:40:11.9464 Info Message Template Auto Format enabled
2021-03-26 16:40:11.9727 Info Loading assembly: NLog.Web.AspNetCore
2021-03-26 16:40:12.0353 Info Adding target FileTarget(Name=alldata)
2021-03-26 16:40:12.0454 Info Adding target FileTarget(Name=otherFile-web)
2021-03-26 16:40:12.0874 Info Validating config: TargetNames=alldata, ConfigItems=44, FilePath=D:\Profiles\vinekumar\source\repos\WebAPI\WebAPI\bin\Debug\netcoreapp3.1\NLog.config
2021-03-26 16:40:12.1125 Warn Unused target detected. Add a rule for this target to the configuration. TargetName: otherFile-web
2021-03-26 16:40:12.1924 Info Configuration initialized.
2021-03-26 16:40:12.1924 Info NLog, Version=4.0.0.0, Culture=neutral, PublicKeyToken=5120e14c03d0593c. File version: 4.7.8.12686. Product version: 4.7.8+1a738710a3e2974972abafd94d9df40f6b58035f. GlobalAssemblyCache: False
2021-03-26 16:40:37.1461 Info Message Template Auto Format enabled
2021-03-26 16:40:37.1631 Info Loading assembly: NLog.Web.AspNetCore
2021-03-26 16:40:37.2230 Info Adding target FileTarget(Name=alldata)
2021-03-26 16:40:37.2346 Info Adding target FileTarget(Name=otherFile-web)
2021-03-26 16:40:37.2741 Info Validating config: TargetNames=alldata, ConfigItems=44, FilePath=D:\Profiles\vinekumar\source\repos\WebAPI\WebAPI\bin\Debug\netcoreapp3.1\NLog.config
2021-03-26 16:40:37.2883 Warn Unused target detected. Add a rule for this target to the configuration. TargetName: otherFile-web
2021-03-26 16:40:37.3088 Info Configuration initialized.
2021-03-26 16:40:37.3216 Info NLog, Version=4.0.0.0, Culture=neutral, PublicKeyToken=5120e14c03d0593c. File version: 4.7.8.12686. Product version: 4.7.8+1a738710a3e2974972abafd94d9df40f6b58035f. GlobalAssemblyCache: False
2021-03-26 16:41:42.1616 Info Message Template Auto Format enabled
2021-03-26 16:41:42.1804 Info Loading assembly: NLog.Web.AspNetCore
2021-03-26 16:41:42.2661 Info Adding target FileTarget(Name=alldata)
2021-03-26 16:41:42.3076 Info Adding target FileTarget(Name=otherFile-web)
2021-03-26 16:41:42.3569 Info Validating config: TargetNames=alldata, ConfigItems=44, FilePath=D:\Profiles\vinekumar\source\repos\WebAPI\WebAPI\bin\Debug\netcoreapp3.1\NLog.config
2021-03-26 16:41:42.3719 Warn Unused target detected. Add a rule for this target to the configuration. TargetName: otherFile-web
2021-03-26 16:41:42.3933 Info Configuration initialized.
2021-03-26 16:41:42.3995 Info NLog, Version=4.0.0.0, Culture=neutral, PublicKeyToken=5120e14c03d0593c. File version: 4.7.8.12686. Product version: 4.7.8+1a738710a3e2974972abafd94d9df40f6b58035f. GlobalAssemblyCache: False
2021-03-26 16:42:10.7931 Info AppDomain Shutting down. Logger closing...
2021-03-26 16:42:10.8133 Info Logger has been shut down.
2021-03-26 16:42:36.0049 Info Message Template Auto Format enabled
2021-03-26 16:42:36.0320 Info Loading assembly: NLog.Web.AspNetCore
2021-03-26 16:42:36.1054 Info Adding target FileTarget(Name=alldata)
2021-03-26 16:42:36.1054 Info Adding target FileTarget(Name=otherFile-web)
2021-03-26 16:42:36.1619 Info Validating config: TargetNames=alldata, ConfigItems=44, FilePath=D:\Profiles\vinekumar\source\repos\WebAPI\WebAPI\bin\Debug\netcoreapp3.1\NLog.config
2021-03-26 16:42:36.1948 Warn Unused target detected. Add a rule for this target to the configuration. TargetName: otherFile-web
2021-03-26 16:42:36.2381 Info Configuration initialized.
2021-03-26 16:42:36.2520 Info NLog, Version=4.0.0.0, Culture=neutral, PublicKeyToken=5120e14c03d0593c. File version: 4.7.8.12686. Product version: 4.7.8+1a738710a3e2974972abafd94d9df40f6b58035f. GlobalAssemblyCache: False
2021-03-26 16:43:28.5553 Info Message Template Auto Format enabled
2021-03-26 16:43:28.5795 Info Loading assembly: NLog.Web.AspNetCore
2021-03-26 16:43:28.6363 Info Adding target FileTarget(Name=alldata)
2021-03-26 16:43:28.6363 Info Adding target FileTarget(Name=otherFile-web)
2021-03-26 16:43:28.6851 Info Validating config: TargetNames=alldata, ConfigItems=44, FilePath=D:\Profiles\vinekumar\source\repos\WebAPI\WebAPI\bin\Debug\netcoreapp3.1\NLog.config
2021-03-26 16:43:28.7007 Warn Unused target detected. Add a rule for this target to the configuration. TargetName: otherFile-web
2021-03-26 16:43:28.7273 Info Configuration initialized.
2021-03-26 16:43:28.7273 Info NLog, Version=4.0.0.0, Culture=neutral, PublicKeyToken=5120e14c03d0593c. File version: 4.7.8.12686. Product version: 4.7.8+1a738710a3e2974972abafd94d9df40f6b58035f. GlobalAssemblyCache: False
2021-03-26 16:44:14.4033 Info Message Template Auto Format enabled
2021-03-26 16:44:14.4334 Info Loading assembly: NLog.Web.AspNetCore
2021-03-26 16:44:14.5119 Info Adding target FileTarget(Name=alldata)
2021-03-26 16:44:14.5119 Info Adding target FileTarget(Name=otherFile-web)
2021-03-26 16:44:14.5655 Info Validating config: TargetNames=alldata, ConfigItems=44, FilePath=D:\Profiles\vinekumar\source\repos\WebAPI\WebAPI\bin\Debug\netcoreapp3.1\NLog.config
2021-03-26 16:44:14.5789 Warn Unused target detected. Add a rule for this target to the configuration. TargetName: otherFile-web
2021-03-26 16:44:14.5948 Info Configuration initialized.
2021-03-26 16:44:14.5948 Info NLog, Version=4.0.0.0, Culture=neutral, PublicKeyToken=5120e14c03d0593c. File version: 4.7.8.12686. Product version: 4.7.8+1a738710a3e2974972abafd94d9df40f6b58035f. GlobalAssemblyCache: False
2021-03-26 16:45:37.6059 Info Message Template Auto Format enabled
2021-03-26 16:45:37.6279 Info Loading assembly: NLog.Web.AspNetCore
2021-03-26 16:45:37.6777 Info Adding target FileTarget(Name=alldata)
2021-03-26 16:45:37.6888 Info Adding target FileTarget(Name=otherFile-web)
2021-03-26 16:45:37.7277 Info Validating config: TargetNames=alldata, ConfigItems=44, FilePath=D:\Profiles\vinekumar\source\repos\WebAPI\WebAPI\bin\Debug\netcoreapp3.1\NLog.config
2021-03-26 16:45:37.7277 Warn Unused target detected. Add a rule for this target to the configuration. TargetName: otherFile-web
2021-03-26 16:45:37.7586 Info Configuration initialized.
2021-03-26 16:45:37.7586 Info NLog, Version=4.0.0.0, Culture=neutral, PublicKeyToken=5120e14c03d0593c. File version: 4.7.8.12686. Product version: 4.7.8+1a738710a3e2974972abafd94d9df40f6b58035f. GlobalAssemblyCache: False
2021-03-26 16:46:28.6970 Info AppDomain Shutting down. Logger closing...
2021-03-26 16:46:28.7227 Info Logger has been shut down.
2021-03-26 16:47:09.3149 Info Message Template Auto Format enabled
2021-03-26 16:47:09.3327 Info Loading assembly: NLog.Web.AspNetCore
2021-03-26 16:47:09.4318 Info Adding target FileTarget(Name=alldata)
2021-03-26 16:47:09.4470 Info Adding target FileTarget(Name=otherFile-web)
2021-03-26 16:47:09.4842 Info Validating config: TargetNames=alldata, ConfigItems=44, FilePath=D:\Profiles\vinekumar\source\repos\WebAPI\WebAPI\bin\Debug\netcoreapp3.1\NLog.config
2021-03-26 16:47:09.4981 Warn Unused target detected. Add a rule for this target to the configuration. TargetName: otherFile-web
2021-03-26 16:47:09.5155 Info Configuration initialized.
2021-03-26 16:47:09.5155 Info NLog, Version=4.0.0.0, Culture=neutral, PublicKeyToken=5120e14c03d0593c. File version: 4.7.8.12686. Product version: 4.7.8+1a738710a3e2974972abafd94d9df40f6b58035f. GlobalAssemblyCache: False
2021-03-26 17:15:05.5811 Info AppDomain Shutting down. Logger closing...
2021-03-26 17:15:05.6098 Info Logger has been shut down.
2021-04-30 13:24:31.4601 Info Message Template Auto Format enabled
2021-04-30 13:24:31.4839 Info Loading assembly: NLog.Web.AspNetCore
2021-04-30 13:24:31.5444 Info Adding target FileTarget(Name=alldata)
2021-04-30 13:24:31.5532 Info Adding target FileTarget(Name=otherFile-web)
2021-04-30 13:24:31.5879 Info Validating config: TargetNames=alldata, ConfigItems=44, FilePath=D:\Profiles\vinekumar\source\repos\WebAPI\WebAPI\bin\Debug\netcoreapp3.1\NLog.config
2021-04-30 13:24:31.6028 Warn Unused target detected. Add a rule for this target to the configuration. TargetName: otherFile-web
2021-04-30 13:24:31.6211 Info Configuration initialized.
2021-04-30 13:24:31.6211 Info NLog, Version=4.0.0.0, Culture=neutral, PublicKeyToken=5120e14c03d0593c. File version: 4.7.8.12686. Product version: 4.7.8+1a738710a3e2974972abafd94d9df40f6b58035f. GlobalAssemblyCache: False
2021-04-30 14:02:36.3580 Info Message Template Auto Format enabled
2021-04-30 14:02:36.3758 Info Loading assembly: NLog.Web.AspNetCore
2021-04-30 14:02:36.4459 Info Adding target FileTarget(Name=alldata)
2021-04-30 14:02:36.4459 Info Adding target FileTarget(Name=otherFile-web)
2021-04-30 14:02:36.4927 Info Validating config: TargetNames=alldata, ConfigItems=44, FilePath=D:\Profiles\vinekumar\source\repos\WebAPI\WebAPI\bin\Debug\netcoreapp3.1\NLog.config
2021-04-30 14:02:36.5081 Warn Unused target detected. Add a rule for this target to the configuration. TargetName: otherFile-web
2021-04-30 14:02:36.5340 Info Configuration initialized.
2021-04-30 14:02:36.5398 Info NLog, Version=4.0.0.0, Culture=neutral, PublicKeyToken=5120e14c03d0593c. File version: 4.7.8.12686. Product version: 4.7.8+1a738710a3e2974972abafd94d9df40f6b58035f. GlobalAssemblyCache: False
2021-04-30 14:19:29.3066 Info Message Template Auto Format enabled
2021-04-30 14:19:29.3316 Info Loading assembly: NLog.Web.AspNetCore
2021-04-30 14:19:29.3947 Info Adding target FileTarget(Name=alldata)
2021-04-30 14:19:29.3947 Info Adding target FileTarget(Name=otherFile-web)
2021-04-30 14:19:29.4387 Info Validating config: TargetNames=alldata, ConfigItems=44, FilePath=D:\Profiles\vinekumar\source\repos\WebAPI\WebAPI\bin\Debug\netcoreapp3.1\NLog.config
2021-04-30 14:19:29.4533 Warn Unused target detected. Add a rule for this target to the configuration. TargetName: otherFile-web
2021-04-30 14:19:29.4775 Info Configuration initialized.
2021-04-30 14:19:29.4775 Info NLog, Version=4.0.0.0, Culture=neutral, PublicKeyToken=5120e14c03d0593c. File version: 4.7.8.12686. Product version: 4.7.8+1a738710a3e2974972abafd94d9df40f6b58035f. GlobalAssemblyCache: False
2021-05-26 13:52:02.7439 Info Message Template Auto Format enabled
2021-05-26 13:52:02.7718 Info Loading assembly: NLog.Web.AspNetCore
2021-05-26 13:52:02.8545 Info Adding target FileTarget(Name=alldata)
2021-05-26 13:52:02.8652 Info Adding target FileTarget(Name=otherFile-web)
2021-05-26 13:52:02.9011 Info Validating config: TargetNames=alldata, ConfigItems=44, FilePath=D:\Profiles\vinekumar\source\repos\WebAPI\WebAPI\bin\Debug\netcoreapp3.1\NLog.config
2021-05-26 13:52:02.9182 Warn Unused target detected. Add a rule for this target to the configuration. TargetName: otherFile-web
2021-05-26 13:52:02.9353 Info Configuration initialized.
2021-05-26 13:52:02.9420 Info NLog, Version=4.0.0.0, Culture=neutral, PublicKeyToken=5120e14c03d0593c. File version: 4.7.8.12686. Product version: 4.7.8+1a738710a3e2974972abafd94d9df40f6b58035f. GlobalAssemblyCache: False
2021-05-26 14:09:43.7021 Info Message Template Auto Format enabled
2021-05-26 14:09:43.7491 Info Loading assembly: NLog.Web.AspNetCore
2021-05-26 14:09:43.8120 Info Adding target FileTarget(Name=alldata)
2021-05-26 14:09:43.8219 Info Adding target FileTarget(Name=otherFile-web)
2021-05-26 14:09:43.8664 Info Validating config: TargetNames=alldata, ConfigItems=44, FilePath=D:\Profiles\vinekumar\source\repos\WebAPI\WebAPI\bin\Debug\netcoreapp3.1\NLog.config
2021-05-26 14:09:43.8871 Warn Unused target detected. Add a rule for this target to the configuration. TargetName: otherFile-web
2021-05-26 14:09:43.9229 Info Configuration initialized.
2021-05-26 14:09:43.9348 Info NLog, Version=4.0.0.0, Culture=neutral, PublicKeyToken=5120e14c03d0593c. File version: 4.7.8.12686. Product version: 4.7.8+1a738710a3e2974972abafd94d9df40f6b58035f. GlobalAssemblyCache: False
2021-05-26 15:07:05.0780 Info Message Template Auto Format enabled
2021-05-26 15:07:05.1034 Info Loading assembly: NLog.Web.AspNetCore
2021-05-26 15:07:05.1579 Info Adding target FileTarget(Name=alldata)
2021-05-26 15:07:05.1669 Info Adding target FileTarget(Name=otherFile-web)
2021-05-26 15:07:05.2021 Info Validating config: TargetNames=alldata, ConfigItems=44, FilePath=D:\Profiles\vinekumar\source\repos\WebAPI\WebAPI\bin\Debug\netcoreapp3.1\NLog.config
2021-05-26 15:07:05.2201 Warn Unused target detected. Add a rule for this target to the configuration. TargetName: otherFile-web
2021-05-26 15:07:05.2519 Info Configuration initialized.
2021-05-26 15:07:05.2618 Info NLog, Version=4.0.0.0, Culture=neutral, PublicKeyToken=5120e14c03d0593c. File version: 4.7.8.12686. Product version: 4.7.8+1a738710a3e2974972abafd94d9df40f6b58035f. GlobalAssemblyCache: False
2021-05-26 15:57:33.1911 Info Message Template Auto Format enabled
2021-05-26 15:57:33.2442 Info Loading assembly: NLog.Web.AspNetCore
2021-05-26 15:57:33.3408 Info Adding target FileTarget(Name=alldata)
2021-05-26 15:57:33.3408 Info Adding target FileTarget(Name=otherFile-web)
2021-05-26 15:57:33.3988 Info Validating config: TargetNames=alldata, ConfigItems=44, FilePath=D:\Profiles\vinekumar\source\repos\WebAPI\WebAPI\bin\Debug\netcoreapp3.1\NLog.config
2021-05-26 15:57:33.4201 Warn Unused target detected. Add a rule for this target to the configuration. TargetName: otherFile-web
2021-05-26 15:57:33.4427 Info Configuration initialized.
2021-05-26 15:57:33.4529 Info NLog, Version=4.0.0.0, Culture=neutral, PublicKeyToken=5120e14c03d0593c. File version: 4.7.8.12686. Product version: 4.7.8+1a738710a3e2974972abafd94d9df40f6b58035f. GlobalAssemblyCache: False
2021-05-26 16:04:43.6948 Info Message Template Auto Format enabled
2021-05-26 16:04:43.7222 Info Loading assembly: NLog.Web.AspNetCore
2021-05-26 16:04:43.7895 Info Adding target FileTarget(Name=alldata)
2021-05-26 16:04:43.8052 Info Adding target FileTarget(Name=otherFile-web)
2021-05-26 16:04:43.8415 Info Validating config: TargetNames=alldata, ConfigItems=44, FilePath=D:\Profiles\vinekumar\source\repos\WebAPI\WebAPI\bin\Debug\netcoreapp3.1\NLog.config
2021-05-26 16:04:43.8598 Warn Unused target detected. Add a rule for this target to the configuration. TargetName: otherFile-web
2021-05-26 16:04:43.8858 Info Configuration initialized.
2021-05-26 16:04:43.8929 Info NLog, Version=4.0.0.0, Culture=neutral, PublicKeyToken=5120e14c03d0593c. File version: 4.7.8.12686. Product version: 4.7.8+1a738710a3e2974972abafd94d9df40f6b58035f. GlobalAssemblyCache: False
2021-05-26 16:07:00.8300 Info Message Template Auto Format enabled
2021-05-26 16:07:00.8603 Info Loading assembly: NLog.Web.AspNetCore
2021-05-26 16:07:00.9146 Info Adding target FileTarget(Name=alldata)
2021-05-26 16:07:00.9268 Info Adding target FileTarget(Name=otherFile-web)
2021-05-26 16:07:00.9651 Info Validating config: TargetNames=alldata, ConfigItems=44, FilePath=D:\Profiles\vinekumar\source\repos\WebAPI\WebAPI\bin\Debug\netcoreapp3.1\NLog.config
2021-05-26 16:07:00.9903 Warn Unused target detected. Add a rule for this target to the configuration. TargetName: otherFile-web
2021-05-26 16:07:01.0123 Info Configuration initialized.
2021-05-26 16:07:01.0265 Info NLog, Version=4.0.0.0, Culture=neutral, PublicKeyToken=5120e14c03d0593c. File version: 4.7.8.12686. Product version: 4.7.8+1a738710a3e2974972abafd94d9df40f6b58035f. GlobalAssemblyCache: False
2021-05-26 16:08:58.1971 Info Message Template Auto Format enabled
2021-05-26 16:08:58.2271 Info Loading assembly: NLog.Web.AspNetCore
2021-05-26 16:08:58.3064 Info Adding target FileTarget(Name=alldata)
2021-05-26 16:08:58.3146 Info Adding target FileTarget(Name=otherFile-web)
2021-05-26 16:08:58.3605 Info Validating config: TargetNames=alldata, ConfigItems=44, FilePath=D:\Profiles\vinekumar\source\repos\WebAPI\WebAPI\bin\Debug\netcoreapp3.1\NLog.config
2021-05-26 16:08:58.3909 Warn Unused target detected. Add a rule for this target to the configuration. TargetName: otherFile-web
2021-05-26 16:08:58.4143 Info Configuration initialized.
2021-05-26 16:08:58.4263 Info NLog, Version=4.0.0.0, Culture=neutral, PublicKeyToken=5120e14c03d0593c. File version: 4.7.8.12686. Product version: 4.7.8+1a738710a3e2974972abafd94d9df40f6b58035f. GlobalAssemblyCache: False
2021-05-26 16:12:41.3030 Info Message Template Auto Format enabled
2021-05-26 16:12:41.3454 Info Loading assembly: NLog.Web.AspNetCore
2021-05-26 16:12:41.4211 Info Adding target FileTarget(Name=alldata)
2021-05-26 16:12:41.4299 Info Adding target FileTarget(Name=otherFile-web)
2021-05-26 16:12:41.4973 Info Validating config: TargetNames=alldata, ConfigItems=44, FilePath=D:\Profiles\vinekumar\source\repos\WebAPI\WebAPI\bin\Debug\netcoreapp3.1\NLog.config
2021-05-26 16:12:41.5109 Warn Unused target detected. Add a rule for this target to the configuration. TargetName: otherFile-web
2021-05-26 16:12:41.5381 Info Configuration initialized.
2021-05-26 16:12:41.5381 Info NLog, Version=4.0.0.0, Culture=neutral, PublicKeyToken=5120e14c03d0593c. File version: 4.7.8.12686. Product version: 4.7.8+1a738710a3e2974972abafd94d9df40f6b58035f. GlobalAssemblyCache: False
2021-05-26 16:14:09.1494 Info Message Template Auto Format enabled
2021-05-26 16:14:09.1713 Info Loading assembly: NLog.Web.AspNetCore
2021-05-26 16:14:09.2252 Info Adding target FileTarget(Name=alldata)
2021-05-26 16:14:09.2252 Info Adding target FileTarget(Name=otherFile-web)
2021-05-26 16:14:09.2675 Info Validating config: TargetNames=alldata, ConfigItems=44, FilePath=D:\Profiles\vinekumar\source\repos\WebAPI\WebAPI\bin\Debug\netcoreapp3.1\NLog.config
2021-05-26 16:14:09.2675 Warn Unused target detected. Add a rule for this target to the configuration. TargetName: otherFile-web
2021-05-26 16:14:09.2982 Info Configuration initialized.
2021-05-26 16:14:09.2982 Info NLog, Version=4.0.0.0, Culture=neutral, PublicKeyToken=5120e14c03d0593c. File version: 4.7.8.12686. Product version: 4.7.8+1a738710a3e2974972abafd94d9df40f6b58035f. GlobalAssemblyCache: False
2021-05-26 16:15:52.0898 Info Message Template Auto Format enabled
2021-05-26 16:15:52.1201 Info Loading assembly: NLog.Web.AspNetCore
2021-05-26 16:15:52.1801 Info Adding target FileTarget(Name=alldata)
2021-05-26 16:15:52.1977 Info Adding target FileTarget(Name=otherFile-web)
2021-05-26 16:15:52.2520 Info Validating config: TargetNames=alldata, ConfigItems=44, FilePath=D:\Profiles\vinekumar\source\repos\WebAPI\WebAPI\bin\Debug\netcoreapp3.1\NLog.config
2021-05-26 16:15:52.3886 Warn Unused target detected. Add a rule for this target to the configuration. TargetName: otherFile-web
2021-05-26 16:15:52.4493 Info Configuration initialized.
2021-05-26 16:15:52.5351 Info NLog, Version=4.0.0.0, Culture=neutral, PublicKeyToken=5120e14c03d0593c. File version: 4.7.8.12686. Product version: 4.7.8+1a738710a3e2974972abafd94d9df40f6b58035f. GlobalAssemblyCache: False
2021-05-26 16:16:30.0029 Info Message Template Auto Format enabled
2021-05-26 16:16:30.0287 Info Loading assembly: NLog.Web.AspNetCore
2021-05-26 16:16:30.1194 Info Adding target FileTarget(Name=alldata)
2021-05-26 16:16:30.1332 Info Adding target FileTarget(Name=otherFile-web)
2021-05-26 16:16:30.1670 Info Validating config: TargetNames=alldata, ConfigItems=44, FilePath=D:\Profiles\vinekumar\source\repos\WebAPI\WebAPI\bin\Debug\netcoreapp3.1\NLog.config
2021-05-26 16:16:30.1836 Warn Unused target detected. Add a rule for this target to the configuration. TargetName: otherFile-web
2021-05-26 16:16:30.2050 Info Configuration initialized.
2021-05-26 16:16:30.2306 Info NLog, Version=4.0.0.0, Culture=neutral, PublicKeyToken=5120e14c03d0593c. File version: 4.7.8.12686. Product version: 4.7.8+1a738710a3e2974972abafd94d9df40f6b58035f. GlobalAssemblyCache: False
2021-05-26 16:26:35.6825 Info Message Template Auto Format enabled
2021-05-26 16:26:35.7114 Info Loading assembly: NLog.Web.AspNetCore
2021-05-26 16:26:35.7696 Info Adding target FileTarget(Name=alldata)
2021-05-26 16:26:35.7696 Info Adding target FileTarget(Name=otherFile-web)
2021-05-26 16:26:35.8277 Info Validating config: TargetNames=alldata, ConfigItems=44, FilePath=D:\Profiles\vinekumar\source\repos\WebAPI\WebAPI\bin\Debug\netcoreapp3.1\NLog.config
2021-05-26 16:26:35.8414 Warn Unused target detected. Add a rule for this target to the configuration. TargetName: otherFile-web
2021-05-26 16:26:35.8599 Info Configuration initialized.
2021-05-26 16:26:35.8662 Info NLog, Version=4.0.0.0, Culture=neutral, PublicKeyToken=5120e14c03d0593c. File version: 4.7.8.12686. Product version: 4.7.8+1a738710a3e2974972abafd94d9df40f6b58035f. GlobalAssemblyCache: False
2021-05-26 17:14:57.2136 Info Message Template Auto Format enabled
2021-05-26 17:14:57.2378 Info Loading assembly: NLog.Web.AspNetCore
2021-05-26 17:14:57.2970 Info Adding target FileTarget(Name=alldata)
2021-05-26 17:14:57.2970 Info Adding target FileTarget(Name=otherFile-web)
2021-05-26 17:14:57.3424 Info Validating config: TargetNames=alldata, ConfigItems=44, FilePath=D:\Profiles\vinekumar\source\repos\WebAPI\WebAPI\bin\Debug\netcoreapp3.1\NLog.config
2021-05-26 17:14:57.3565 Warn Unused target detected. Add a rule for this target to the configuration. TargetName: otherFile-web
2021-05-26 17:14:57.3746 Info Configuration initialized.
2021-05-26 17:14:57.3746 Info NLog, Version=4.0.0.0, Culture=neutral, PublicKeyToken=5120e14c03d0593c. File version: 4.7.8.12686. Product version: 4.7.8+1a738710a3e2974972abafd94d9df40f6b58035f. GlobalAssemblyCache: False
2021-05-26 17:24:55.4378 Info Message Template Auto Format enabled
2021-05-26 17:24:55.4590 Info Loading assembly: NLog.Web.AspNetCore
2021-05-26 17:24:55.5267 Info Adding target FileTarget(Name=alldata)
2021-05-26 17:24:55.5367 Info Adding target FileTarget(Name=otherFile-web)
2021-05-26 17:24:55.5806 Info Validating config: TargetNames=alldata, ConfigItems=44, FilePath=D:\Profiles\vinekumar\source\repos\WebAPI\WebAPI\bin\Debug\netcoreapp3.1\NLog.config
2021-05-26 17:24:55.5932 Warn Unused target detected. Add a rule for this target to the configuration. TargetName: otherFile-web
2021-05-26 17:24:55.6219 Info Configuration initialized.
2021-05-26 17:24:55.6442 Info NLog, Version=4.0.0.0, Culture=neutral, PublicKeyToken=5120e14c03d0593c. File version: 4.7.8.12686. Product version: 4.7.8+1a738710a3e2974972abafd94d9df40f6b58035f. GlobalAssemblyCache: False
2021-05-26 17:35:49.2436 Info Message Template Auto Format enabled
2021-05-26 17:35:49.2754 Info Loading assembly: NLog.Web.AspNetCore
2021-05-26 17:35:49.3542 Info Adding target FileTarget(Name=alldata)
2021-05-26 17:35:49.3648 Info Adding target FileTarget(Name=otherFile-web)
2021-05-26 17:35:49.4051 Info Validating config: TargetNames=alldata, ConfigItems=44, FilePath=D:\Profiles\vinekumar\source\repos\WebAPI\WebAPI\bin\Debug\netcoreapp3.1\NLog.config
2021-05-26 17:35:49.4200 Warn Unused target detected. Add a rule for this target to the configuration. TargetName: otherFile-web
2021-05-26 17:35:49.4401 Info Configuration initialized.
2021-05-26 17:35:49.4477 Info NLog, Version=4.0.0.0, Culture=neutral, PublicKeyToken=5120e14c03d0593c. File version: 4.7.8.12686. Product version: 4.7.8+1a738710a3e2974972abafd94d9df40f6b58035f. GlobalAssemblyCache: False
2021-05-26 17:36:44.2435 Info Message Template Auto Format enabled
2021-05-26 17:36:44.3072 Info Loading assembly: NLog.Web.AspNetCore
2021-05-26 17:36:44.3812 Info Adding target FileTarget(Name=alldata)
2021-05-26 17:36:44.3812 Info Adding target FileTarget(Name=otherFile-web)
2021-05-26 17:36:44.4467 Info Validating config: TargetNames=alldata, ConfigItems=44, FilePath=D:\Profiles\vinekumar\source\repos\WebAPI\WebAPI\bin\Debug\netcoreapp3.1\NLog.config
2021-05-26 17:36:44.4645 Warn Unused target detected. Add a rule for this target to the configuration. TargetName: otherFile-web
2021-05-26 17:36:44.4851 Info Configuration initialized.
2021-05-26 17:36:44.4957 Info NLog, Version=4.0.0.0, Culture=neutral, PublicKeyToken=5120e14c03d0593c. File version: 4.7.8.12686. Product version: 4.7.8+1a738710a3e2974972abafd94d9df40f6b58035f. GlobalAssemblyCache: False
2021-05-26 17:38:54.6835 Info Message Template Auto Format enabled
2021-05-26 17:38:54.7046 Info Loading assembly: NLog.Web.AspNetCore
2021-05-26 17:38:54.7670 Info Adding target FileTarget(Name=alldata)
2021-05-26 17:38:54.7793 Info Adding target FileTarget(Name=otherFile-web)
2021-05-26 17:38:54.8342 Info Validating config: TargetNames=alldata, ConfigItems=44, FilePath=D:\Profiles\vinekumar\source\repos\WebAPI\WebAPI\bin\Debug\netcoreapp3.1\NLog.config
2021-05-26 17:38:54.8498 Warn Unused target detected. Add a rule for this target to the configuration. TargetName: otherFile-web
2021-05-26 17:38:54.8696 Info Configuration initialized.
2021-05-26 17:38:54.8772 Info NLog, Version=4.0.0.0, Culture=neutral, PublicKeyToken=5120e14c03d0593c. File version: 4.7.8.12686. Product version: 4.7.8+1a738710a3e2974972abafd94d9df40f6b58035f. GlobalAssemblyCache: False
2021-05-26 17:40:25.3630 Info Message Template Auto Format enabled
2021-05-26 17:40:25.3766 Info Loading assembly: NLog.Web.AspNetCore
2021-05-26 17:40:25.4322 Info Adding target FileTarget(Name=alldata)
2021-05-26 17:40:25.4395 Info Adding target FileTarget(Name=otherFile-web)
2021-05-26 17:40:25.4765 Info Validating config: TargetNames=alldata, ConfigItems=44, FilePath=D:\Profiles\vinekumar\source\repos\WebAPI\WebAPI\bin\Debug\netcoreapp3.1\NLog.config
2021-05-26 17:40:25.4939 Warn Unused target detected. Add a rule for this target to the configuration. TargetName: otherFile-web
2021-05-26 17:40:25.5220 Info Configuration initialized.
2021-05-26 17:40:25.5220 Info NLog, Version=4.0.0.0, Culture=neutral, PublicKeyToken=5120e14c03d0593c. File version: 4.7.8.12686. Product version: 4.7.8+1a738710a3e2974972abafd94d9df40f6b58035f. GlobalAssemblyCache: False
2021-05-26 17:44:48.7561 Info Message Template Auto Format enabled
2021-05-26 17:44:48.7828 Info Loading assembly: NLog.Web.AspNetCore
2021-05-26 17:44:48.8518 Info Adding target FileTarget(Name=alldata)
2021-05-26 17:44:48.8518 Info Adding target FileTarget(Name=otherFile-web)
2021-05-26 17:44:48.9061 Info Validating config: TargetNames=alldata, ConfigItems=44, FilePath=D:\Profiles\vinekumar\source\repos\WebAPI\WebAPI\bin\Debug\netcoreapp3.1\NLog.config
2021-05-26 17:44:48.9211 Warn Unused target detected. Add a rule for this target to the configuration. TargetName: otherFile-web
2021-05-26 17:44:48.9517 Info Configuration initialized.
2021-05-26 17:44:48.9517 Info NLog, Version=4.0.0.0, Culture=neutral, PublicKeyToken=5120e14c03d0593c. File version: 4.7.8.12686. Product version: 4.7.8+1a738710a3e2974972abafd94d9df40f6b58035f. GlobalAssemblyCache: False
2021-05-26 17:46:23.4081 Info Message Template Auto Format enabled
2021-05-26 17:46:23.4282 Info Loading assembly: NLog.Web.AspNetCore
2021-05-26 17:46:23.4879 Info Adding target FileTarget(Name=alldata)
2021-05-26 17:46:23.4975 Info Adding target FileTarget(Name=otherFile-web)
2021-05-26 17:46:23.5320 Info Validating config: TargetNames=alldata, ConfigItems=44, FilePath=D:\Profiles\vinekumar\source\repos\WebAPI\WebAPI\bin\Debug\netcoreapp3.1\NLog.config
2021-05-26 17:46:23.5469 Warn Unused target detected. Add a rule for this target to the configuration. TargetName: otherFile-web
2021-05-26 17:46:23.5664 Info Configuration initialized.
2021-05-26 17:46:23.5731 Info NLog, Version=4.0.0.0, Culture=neutral, PublicKeyToken=5120e14c03d0593c. File version: 4.7.8.12686. Product version: 4.7.8+1a738710a3e2974972abafd94d9df40f6b58035f. GlobalAssemblyCache: False
2021-05-26 17:52:23.1089 Info Message Template Auto Format enabled
2021-05-26 17:52:23.1363 Info Loading assembly: NLog.Web.AspNetCore
2021-05-26 17:52:23.2089 Info Adding target FileTarget(Name=alldata)
2021-05-26 17:52:23.2201 Info Adding target FileTarget(Name=otherFile-web)
2021-05-26 17:52:23.2598 Info Validating config: TargetNames=alldata, ConfigItems=44, FilePath=D:\Profiles\vinekumar\source\repos\WebAPI\WebAPI\bin\Debug\netcoreapp3.1\NLog.config
2021-05-26 17:52:23.2805 Warn Unused target detected. Add a rule for this target to the configuration. TargetName: otherFile-web
2021-05-26 17:52:23.3008 Info Configuration initialized.
2021-05-26 17:52:23.3008 Info NLog, Version=4.0.0.0, Culture=neutral, PublicKeyToken=5120e14c03d0593c. File version: 4.7.8.12686. Product version: 4.7.8+1a738710a3e2974972abafd94d9df40f6b58035f. GlobalAssemblyCache: False
2021-05-26 17:53:12.7602 Info Message Template Auto Format enabled
2021-05-26 17:53:12.7869 Info Loading assembly: NLog.Web.AspNetCore
2021-05-26 17:53:12.8784 Info Adding target FileTarget(Name=alldata)
2021-05-26 17:53:12.8963 Info Adding target FileTarget(Name=otherFile-web)
2021-05-26 17:53:12.9608 Info Validating config: TargetNames=alldata, ConfigItems=44, FilePath=D:\Profiles\vinekumar\source\repos\WebAPI\WebAPI\bin\Debug\netcoreapp3.1\NLog.config
2021-05-26 17:53:12.9763 Warn Unused target detected. Add a rule for this target to the configuration. TargetName: otherFile-web
2021-05-26 17:53:12.9969 Info Configuration initialized.
2021-05-26 17:53:13.0077 Info NLog, Version=4.0.0.0, Culture=neutral, PublicKeyToken=5120e14c03d0593c. File version: 4.7.8.12686. Product version: 4.7.8+1a738710a3e2974972abafd94d9df40f6b58035f. GlobalAssemblyCache: False
2021-05-26 17:59:36.8158 Info Message Template Auto Format enabled
2021-05-26 17:59:36.8414 Info Loading assembly: NLog.Web.AspNetCore
2021-05-26 17:59:36.9667 Info Adding target FileTarget(Name=alldata)
2021-05-26 17:59:36.9870 Info Adding target FileTarget(Name=otherFile-web)
2021-05-26 17:59:37.0538 Info Validating config: TargetNames=alldata, ConfigItems=44, FilePath=D:\Profiles\vinekumar\source\repos\WebAPI\WebAPI\bin\Debug\netcoreapp3.1\NLog.config
2021-05-26 17:59:37.0755 Warn Unused target detected. Add a rule for this target to the configuration. TargetName: otherFile-web
2021-05-26 17:59:37.1072 Info Configuration initialized.
2021-05-26 17:59:37.1240 Info NLog, Version=4.0.0.0, Culture=neutral, PublicKeyToken=5120e14c03d0593c. File version: 4.7.8.12686. Product version: 4.7.8+1a738710a3e2974972abafd94d9df40f6b58035f. GlobalAssemblyCache: False
2021-05-26 18:13:51.3372 Info Message Template Auto Format enabled
2021-05-26 18:13:51.3583 Info Loading assembly: NLog.Web.AspNetCore
2021-05-26 18:13:51.4145 Info Adding target FileTarget(Name=alldata)
2021-05-26 18:13:51.4262 Info Adding target FileTarget(Name=otherFile-web)
2021-05-26 18:13:51.4598 Info Validating config: TargetNames=alldata, ConfigItems=44, FilePath=D:\Profiles\vinekumar\source\repos\WebAPI\WebAPI\bin\Debug\netcoreapp3.1\NLog.config
2021-05-26 18:13:51.4759 Warn Unused target detected. Add a rule for this target to the configuration. TargetName: otherFile-web
2021-05-26 18:13:51.4962 Info Configuration initialized.
2021-05-26 18:13:51.5052 Info NLog, Version=4.0.0.0, Culture=neutral, PublicKeyToken=5120e14c03d0593c. File version: 4.7.8.12686. Product version: 4.7.8+1a738710a3e2974972abafd94d9df40f6b58035f. GlobalAssemblyCache: False
2021-05-27 08:15:27.9609 Info Message Template Auto Format enabled
2021-05-27 08:15:28.0280 Info Loading assembly: NLog.Web.AspNetCore
2021-05-27 08:15:28.1162 Info Adding target FileTarget(Name=alldata)
2021-05-27 08:15:28.1820 Info Adding target FileTarget(Name=otherFile-web)
2021-05-27 08:15:28.3204 Info Validating config: TargetNames=alldata, ConfigItems=44, FilePath=D:\Profiles\vinekumar\source\repos\WebAPI\WebAPI\bin\Debug\netcoreapp3.1\NLog.config
2021-05-27 08:15:28.3405 Warn Unused target detected. Add a rule for this target to the configuration. TargetName: otherFile-web
2021-05-27 08:15:28.3977 Info Configuration initialized.
2021-05-27 08:15:28.3977 Info NLog, Version=4.0.0.0, Culture=neutral, PublicKeyToken=5120e14c03d0593c. File version: 4.7.8.12686. Product version: 4.7.8+1a738710a3e2974972abafd94d9df40f6b58035f. GlobalAssemblyCache: False
2021-05-27 08:22:01.4781 Info Message Template Auto Format enabled
2021-05-27 08:22:01.4964 Info Loading assembly: NLog.Web.AspNetCore
2021-05-27 08:22:01.5488 Info Adding target FileTarget(Name=alldata)
2021-05-27 08:22:01.5572 Info Adding target FileTarget(Name=otherFile-web)
2021-05-27 08:22:01.5910 Info Validating config: TargetNames=alldata, ConfigItems=44, FilePath=D:\Profiles\vinekumar\source\repos\WebAPI\WebAPI\bin\Debug\netcoreapp3.1\NLog.config
2021-05-27 08:22:01.6087 Warn Unused target detected. Add a rule for this target to the configuration. TargetName: otherFile-web
2021-05-27 08:22:01.6262 Info Configuration initialized.
2021-05-27 08:22:01.6326 Info NLog, Version=4.0.0.0, Culture=neutral, PublicKeyToken=5120e14c03d0593c. File version: 4.7.8.12686. Product version: 4.7.8+1a738710a3e2974972abafd94d9df40f6b58035f. GlobalAssemblyCache: False
2021-05-27 08:23:31.6905 Info Message Template Auto Format enabled
2021-05-27 08:23:31.7080 Info Loading assembly: NLog.Web.AspNetCore
2021-05-27 08:23:31.7605 Info Adding target FileTarget(Name=alldata)
2021-05-27 08:23:31.7714 Info Adding target FileTarget(Name=otherFile-web)
2021-05-27 08:23:31.8118 Info Validating config: TargetNames=alldata, ConfigItems=44, FilePath=D:\Profiles\vinekumar\source\repos\WebAPI\WebAPI\bin\Debug\netcoreapp3.1\NLog.config
2021-05-27 08:23:31.8241 Warn Unused target detected. Add a rule for this target to the configuration. TargetName: otherFile-web
2021-05-27 08:23:31.8408 Info Configuration initialized.
2021-05-27 08:23:31.8481 Info NLog, Version=4.0.0.0, Culture=neutral, PublicKeyToken=5120e14c03d0593c. File version: 4.7.8.12686. Product version: 4.7.8+1a738710a3e2974972abafd94d9df40f6b58035f. GlobalAssemblyCache: False
2021-05-27 08:27:07.3568 Info Message Template Auto Format enabled
2021-05-27 08:27:07.3737 Info Loading assembly: NLog.Web.AspNetCore
2021-05-27 08:27:07.4235 Info Adding target FileTarget(Name=alldata)
2021-05-27 08:27:07.4312 Info Adding target FileTarget(Name=otherFile-web)
2021-05-27 08:27:07.4641 Info Validating config: TargetNames=alldata, ConfigItems=44, FilePath=D:\Profiles\vinekumar\source\repos\WebAPI\WebAPI\bin\Debug\netcoreapp3.1\NLog.config
2021-05-27 08:27:07.4774 Warn Unused target detected. Add a rule for this target to the configuration. TargetName: otherFile-web
2021-05-27 08:27:07.4945 Info Configuration initialized.
2021-05-27 08:27:07.4945 Info NLog, Version=4.0.0.0, Culture=neutral, PublicKeyToken=5120e14c03d0593c. File version: 4.7.8.12686. Product version: 4.7.8+1a738710a3e2974972abafd94d9df40f6b58035f. GlobalAssemblyCache: False
2021-05-27 08:40:56.4481 Info Message Template Auto Format enabled
2021-05-27 08:40:56.4697 Info Loading assembly: NLog.Web.AspNetCore
2021-05-27 08:40:56.5262 Info Adding target FileTarget(Name=alldata)
2021-05-27 08:40:56.5262 Info Adding target FileTarget(Name=otherFile-web)
2021-05-27 08:40:56.5736 Info Validating config: TargetNames=alldata, ConfigItems=44, FilePath=D:\Profiles\vinekumar\source\repos\WebAPI\WebAPI\bin\Debug\netcoreapp3.1\NLog.config
2021-05-27 08:40:56.5887 Warn Unused target detected. Add a rule for this target to the configuration. TargetName: otherFile-web
2021-05-27 08:40:56.6118 Info Configuration initialized.
2021-05-27 08:40:56.6182 Info NLog, Version=4.0.0.0, Culture=neutral, PublicKeyToken=5120e14c03d0593c. File version: 4.7.8.12686. Product version: 4.7.8+1a738710a3e2974972abafd94d9df40f6b58035f. GlobalAssemblyCache: False
2021-05-27 08:46:08.7250 Info Message Template Auto Format enabled
2021-05-27 08:46:08.7422 Info Loading assembly: NLog.Web.AspNetCore
2021-05-27 08:46:08.7877 Info Adding target FileTarget(Name=alldata)
2021-05-27 08:46:08.7877 Info Adding target FileTarget(Name=otherFile-web)
2021-05-27 08:46:08.8270 Info Validating config: TargetNames=alldata, ConfigItems=44, FilePath=D:\Profiles\vinekumar\source\repos\WebAPI\WebAPI\bin\Debug\netcoreapp3.1\NLog.config
2021-05-27 08:46:08.8396 Warn Unused target detected. Add a rule for this target to the configuration. TargetName: otherFile-web
2021-05-27 08:46:08.8566 Info Configuration initialized.
2021-05-27 08:46:08.8637 Info NLog, Version=4.0.0.0, Culture=neutral, PublicKeyToken=5120e14c03d0593c. File version: 4.7.8.12686. Product version: 4.7.8+1a738710a3e2974972abafd94d9df40f6b58035f. GlobalAssemblyCache: False
2021-05-27 08:53:19.0368 Info Message Template Auto Format enabled
2021-05-27 08:53:19.0601 Info Loading assembly: NLog.Web.AspNetCore
2021-05-27 08:53:19.1197 Info Adding target FileTarget(Name=alldata)
2021-05-27 08:53:19.1308 Info Adding target FileTarget(Name=otherFile-web)
2021-05-27 08:53:19.1774 Info Validating config: TargetNames=alldata, ConfigItems=44, FilePath=D:\Profiles\vinekumar\source\repos\WebAPI\WebAPI\bin\Debug\netcoreapp3.1\NLog.config
2021-05-27 08:53:19.1914 Warn Unused target detected. Add a rule for this target to the configuration. TargetName: otherFile-web
2021-05-27 08:53:19.2140 Info Configuration initialized.
2021-05-27 08:53:19.2140 Info NLog, Version=4.0.0.0, Culture=neutral, PublicKeyToken=5120e14c03d0593c. File version: 4.7.8.12686. Product version: 4.7.8+1a738710a3e2974972abafd94d9df40f6b58035f. GlobalAssemblyCache: False
2021-05-27 08:56:58.6167 Info Message Template Auto Format enabled
2021-05-27 08:56:58.6318 Info Loading assembly: NLog.Web.AspNetCore
2021-05-27 08:56:58.6936 Info Adding target FileTarget(Name=alldata)
2021-05-27 08:56:58.7070 Info Adding target FileTarget(Name=otherFile-web)
2021-05-27 08:56:58.7436 Info Validating config: TargetNames=alldata, ConfigItems=44, FilePath=D:\Profiles\vinekumar\source\repos\WebAPI\WebAPI\bin\Debug\netcoreapp3.1\NLog.config
2021-05-27 08:56:58.7595 Warn Unused target detected. Add a rule for this target to the configuration. TargetName: otherFile-web
2021-05-27 08:56:58.7940 Info Configuration initialized.
2021-05-27 08:56:58.8005 Info NLog, Version=4.0.0.0, Culture=neutral, PublicKeyToken=5120e14c03d0593c. File version: 4.7.8.12686. Product version: 4.7.8+1a738710a3e2974972abafd94d9df40f6b58035f. GlobalAssemblyCache: False
2021-05-27 08:57:55.1797 Info Message Template Auto Format enabled
2021-05-27 08:57:55.1968 Info Loading assembly: NLog.Web.AspNetCore
2021-05-27 08:57:55.2454 Info Adding target FileTarget(Name=alldata)
2021-05-27 08:57:55.2530 Info Adding target FileTarget(Name=otherFile-web)
2021-05-27 08:57:55.2873 Info Validating config: TargetNames=alldata, ConfigItems=44, FilePath=D:\Profiles\vinekumar\source\repos\WebAPI\WebAPI\bin\Debug\netcoreapp3.1\NLog.config
2021-05-27 08:57:55.3028 Warn Unused target detected. Add a rule for this target to the configuration. TargetName: otherFile-web
2021-05-27 08:57:55.3213 Info Configuration initialized.
2021-05-27 08:57:55.3213 Info NLog, Version=4.0.0.0, Culture=neutral, PublicKeyToken=5120e14c03d0593c. File version: 4.7.8.12686. Product version: 4.7.8+1a738710a3e2974972abafd94d9df40f6b58035f. GlobalAssemblyCache: False
2021-05-27 09:03:58.8878 Info Message Template Auto Format enabled
2021-05-27 09:03:58.9077 Info Loading assembly: NLog.Web.AspNetCore
2021-05-27 09:03:58.9569 Info Adding target FileTarget(Name=alldata)
2021-05-27 09:03:58.9569 Info Adding target FileTarget(Name=otherFile-web)
2021-05-27 09:03:58.9961 Info Validating config: TargetNames=alldata, ConfigItems=44, FilePath=D:\Profiles\vinekumar\source\repos\WebAPI\WebAPI\bin\Debug\netcoreapp3.1\NLog.config
2021-05-27 09:03:59.0095 Warn Unused target detected. Add a rule for this target to the configuration. TargetName: otherFile-web
2021-05-27 09:03:59.0269 Info Configuration initialized.
2021-05-27 09:03:59.0269 Info NLog, Version=4.0.0.0, Culture=neutral, PublicKeyToken=5120e14c03d0593c. File version: 4.7.8.12686. Product version: 4.7.8+1a738710a3e2974972abafd94d9df40f6b58035f. GlobalAssemblyCache: False
2021-05-27 11:04:38.8364 Info Message Template Auto Format enabled
2021-05-27 11:04:38.8743 Info Loading assembly: NLog.Web.AspNetCore
2021-05-27 11:04:38.9527 Info Adding target FileTarget(Name=alldata)
2021-05-27 11:04:38.9672 Info Adding target FileTarget(Name=otherFile-web)
2021-05-27 11:04:39.0278 Info Validating config: TargetNames=alldata, ConfigItems=44, FilePath=D:\Profiles\vinekumar\source\repos\WebAPI\WebAPI\bin\Debug\netcoreapp3.1\NLog.config
2021-05-27 11:04:39.0551 Warn Unused target detected. Add a rule for this target to the configuration. TargetName: otherFile-web
2021-05-27 11:04:39.1213 Info Configuration initialized.
2021-05-27 11:04:39.1308 Info NLog, Version=4.0.0.0, Culture=neutral, PublicKeyToken=5120e14c03d0593c. File version: 4.7.8.12686. Product version: 4.7.8+1a738710a3e2974972abafd94d9df40f6b58035f. GlobalAssemblyCache: False
2021-05-27 14:13:13.1289 Info Message Template Auto Format enabled
2021-05-27 14:13:13.1524 Info Loading assembly: NLog.Web.AspNetCore
2021-05-27 14:13:13.2213 Info Adding target FileTarget(Name=alldata)
2021-05-27 14:13:13.2213 Info Adding target FileTarget(Name=otherFile-web)
2021-05-27 14:13:13.2676 Info Validating config: TargetNames=alldata, ConfigItems=44, FilePath=D:\Profiles\vinekumar\source\repos\WebAPI\WebAPI\bin\Debug\netcoreapp3.1\NLog.config
2021-05-27 14:13:13.2871 Warn Unused target detected. Add a rule for this target to the configuration. TargetName: otherFile-web
2021-05-27 14:13:13.3105 Info Configuration initialized.
2021-05-27 14:13:13.3186 Info NLog, Version=4.0.0.0, Culture=neutral, PublicKeyToken=5120e14c03d0593c. File version: 4.7.8.12686. Product version: 4.7.8+1a738710a3e2974972abafd94d9df40f6b58035f. GlobalAssemblyCache: False
2021-05-27 16:38:13.7901 Info Message Template Auto Format enabled
2021-05-27 16:38:13.8148 Info Loading assembly: NLog.Web.AspNetCore
2021-05-27 16:38:13.8799 Info Adding target FileTarget(Name=alldata)
2021-05-27 16:38:13.9152 Info Adding target FileTarget(Name=otherFile-web)
2021-05-27 16:38:13.9810 Info Validating config: TargetNames=alldata, ConfigItems=44, FilePath=D:\Profiles\vinekumar\source\repos\WebAPI\WebAPI\bin\Debug\netcoreapp3.1\NLog.config
2021-05-27 16:38:13.9969 Warn Unused target detected. Add a rule for this target to the configuration. TargetName: otherFile-web
2021-05-27 16:38:14.0236 Info Configuration initialized.
2021-05-27 16:38:14.0351 Info NLog, Version=4.0.0.0, Culture=neutral, PublicKeyToken=5120e14c03d0593c. File version: 4.7.8.12686. Product version: 4.7.8+1a738710a3e2974972abafd94d9df40f6b58035f. GlobalAssemblyCache: False
2021-05-27 18:08:19.2305 Info Message Template Auto Format enabled
2021-05-27 18:08:19.2798 Info Loading assembly: NLog.Web.AspNetCore
2021-05-27 18:08:19.4255 Info Adding target FileTarget(Name=alldata)
2021-05-27 18:08:19.4255 Info Adding target FileTarget(Name=otherFile-web)
2021-05-27 18:08:19.5719 Info Validating config: TargetNames=alldata, ConfigItems=44, FilePath=D:\Profiles\vinekumar\source\repos\WebAPI\WebAPI\bin\Debug\netcoreapp3.1\NLog.config
2021-05-27 18:08:19.5894 Warn Unused target detected. Add a rule for this target to the configuration. TargetName: otherFile-web
2021-05-27 18:08:19.6997 Info Configuration initialized.
2021-05-27 18:08:19.7433 Info NLog, Version=4.0.0.0, Culture=neutral, PublicKeyToken=5120e14c03d0593c. File version: 4.7.8.12686. Product version: 4.7.8+1a738710a3e2974972abafd94d9df40f6b58035f. GlobalAssemblyCache: False
2021-05-27 18:11:26.9359 Info Message Template Auto Format enabled
2021-05-27 18:11:26.9605 Info Loading assembly: NLog.Web.AspNetCore
2021-05-27 18:11:27.0471 Info Adding target FileTarget(Name=alldata)
2021-05-27 18:11:27.0775 Info Adding target FileTarget(Name=otherFile-web)
2021-05-27 18:11:27.1251 Info Validating config: TargetNames=alldata, ConfigItems=44, FilePath=D:\Profiles\vinekumar\source\repos\WebAPI\WebAPI\bin\Debug\netcoreapp3.1\NLog.config
2021-05-27 18:11:27.1398 Warn Unused target detected. Add a rule for this target to the configuration. TargetName: otherFile-web
2021-05-27 18:11:27.1624 Info Configuration initialized.
2021-05-27 18:11:27.1624 Info NLog, Version=4.0.0.0, Culture=neutral, PublicKeyToken=5120e14c03d0593c. File version: 4.7.8.12686. Product version: 4.7.8+1a738710a3e2974972abafd94d9df40f6b58035f. GlobalAssemblyCache: False
2021-05-27 18:14:48.7358 Info Message Template Auto Format enabled
2021-05-27 18:14:48.7586 Info Loading assembly: NLog.Web.AspNetCore
2021-05-27 18:14:48.8229 Info Adding target FileTarget(Name=alldata)
2021-05-27 18:14:48.8458 Info Adding target FileTarget(Name=otherFile-web)
2021-05-27 18:14:48.9357 Info Validating config: TargetNames=alldata, ConfigItems=44, FilePath=D:\Profiles\vinekumar\source\repos\WebAPI\WebAPI\bin\Debug\netcoreapp3.1\NLog.config
2021-05-27 18:14:48.9639 Warn Unused target detected. Add a rule for this target to the configuration. TargetName: otherFile-web
2021-05-27 18:14:48.9811 Info Configuration initialized.
2021-05-27 18:14:48.9939 Info NLog, Version=4.0.0.0, Culture=neutral, PublicKeyToken=5120e14c03d0593c. File version: 4.7.8.12686. Product version: 4.7.8+1a738710a3e2974972abafd94d9df40f6b58035f. GlobalAssemblyCache: False
2021-05-27 18:15:49.9800 Info Message Template Auto Format enabled
2021-05-27 18:15:50.0087 Info Loading assembly: NLog.Web.AspNetCore
2021-05-27 18:15:50.0743 Info Adding target FileTarget(Name=alldata)
2021-05-27 18:15:50.0906 Info Adding target FileTarget(Name=otherFile-web)
2021-05-27 18:15:50.1352 Info Validating config: TargetNames=alldata, ConfigItems=44, FilePath=D:\Profiles\vinekumar\source\repos\WebAPI\WebAPI\bin\Debug\netcoreapp3.1\NLog.config
2021-05-27 18:15:50.1509 Warn Unused target detected. Add a rule for this target to the configuration. TargetName: otherFile-web
2021-05-27 18:15:50.1790 Info Configuration initialized.
2021-05-27 18:15:50.1873 Info NLog, Version=4.0.0.0, Culture=neutral, PublicKeyToken=5120e14c03d0593c. File version: 4.7.8.12686. Product version: 4.7.8+1a738710a3e2974972abafd94d9df40f6b58035f. GlobalAssemblyCache: False
2021-05-27 18:17:08.4842 Info Message Template Auto Format enabled
2021-05-27 18:17:08.5199 Info Loading assembly: NLog.Web.AspNetCore
2021-05-27 18:17:08.6095 Info Adding target FileTarget(Name=alldata)
2021-05-27 18:17:08.6095 Info Adding target FileTarget(Name=otherFile-web)
2021-05-27 18:17:08.6585 Info Validating config: TargetNames=alldata, ConfigItems=44, FilePath=D:\Profiles\vinekumar\source\repos\WebAPI\WebAPI\bin\Debug\netcoreapp3.1\NLog.config
2021-05-27 18:17:08.6762 Warn Unused target detected. Add a rule for this target to the configuration. TargetName: otherFile-web
2021-05-27 18:17:08.7006 Info Configuration initialized.
2021-05-27 18:17:08.7006 Info NLog, Version=4.0.0.0, Culture=neutral, PublicKeyToken=5120e14c03d0593c. File version: 4.7.8.12686. Product version: 4.7.8+1a738710a3e2974972abafd94d9df40f6b58035f. GlobalAssemblyCache: False
2021-05-28 10:29:43.5126 Info Message Template Auto Format enabled
2021-05-28 10:29:43.5452 Info Loading assembly: NLog.Web.AspNetCore
2021-05-28 10:29:43.7079 Info Adding target FileTarget(Name=alldata)
2021-05-28 10:29:43.7752 Info Adding target FileTarget(Name=otherFile-web)
2021-05-28 10:29:43.8782 Info Validating config: TargetNames=alldata, ConfigItems=44, FilePath=D:\Profiles\vinekumar\source\repos\WebAPI\WebAPI\bin\Debug\netcoreapp3.1\NLog.config
2021-05-28 10:29:43.9474 Warn Unused target detected. Add a rule for this target to the configuration. TargetName: otherFile-web
2021-05-28 10:29:44.0049 Info Configuration initialized.
2021-05-28 10:29:44.0140 Info NLog, Version=4.0.0.0, Culture=neutral, PublicKeyToken=5120e14c03d0593c. File version: 4.7.8.12686. Product version: 4.7.8+1a738710a3e2974972abafd94d9df40f6b58035f. GlobalAssemblyCache: False
2021-05-28 10:31:18.3409 Info Message Template Auto Format enabled
2021-05-28 10:31:18.3627 Info Loading assembly: NLog.Web.AspNetCore
2021-05-28 10:31:18.4337 Info Adding target FileTarget(Name=alldata)
2021-05-28 10:31:18.4420 Info Adding target FileTarget(Name=otherFile-web)
2021-05-28 10:31:18.4923 Info Validating config: TargetNames=alldata, ConfigItems=44, FilePath=D:\Profiles\vinekumar\source\repos\WebAPI\WebAPI\bin\Debug\netcoreapp3.1\NLog.config
2021-05-28 10:31:18.5078 Warn Unused target detected. Add a rule for this target to the configuration. TargetName: otherFile-web
2021-05-28 10:31:18.5407 Info Configuration initialized.
2021-05-28 10:31:18.5628 Info NLog, Version=4.0.0.0, Culture=neutral, PublicKeyToken=5120e14c03d0593c. File version: 4.7.8.12686. Product version: 4.7.8+1a738710a3e2974972abafd94d9df40f6b58035f. GlobalAssemblyCache: False
2021-05-28 10:56:43.8640 Info Message Template Auto Format enabled
2021-05-28 10:56:43.8930 Info Loading assembly: NLog.Web.AspNetCore
2021-05-28 10:56:43.9553 Info Adding target FileTarget(Name=alldata)
2021-05-28 10:56:43.9802 Info Adding target FileTarget(Name=otherFile-web)
2021-05-28 10:56:44.0289 Info Validating config: TargetNames=alldata, ConfigItems=44, FilePath=D:\Profiles\vinekumar\source\repos\WebAPI\WebAPI\bin\Debug\netcoreapp3.1\NLog.config
2021-05-28 10:56:44.0524 Warn Unused target detected. Add a rule for this target to the configuration. TargetName: otherFile-web
2021-05-28 10:56:44.0758 Info Configuration initialized.
2021-05-28 10:56:44.0847 Info NLog, Version=4.0.0.0, Culture=neutral, PublicKeyToken=5120e14c03d0593c. File version: 4.7.8.12686. Product version: 4.7.8+1a738710a3e2974972abafd94d9df40f6b58035f. GlobalAssemblyCache: False
2021-05-28 13:20:59.9306 Info Message Template Auto Format enabled
2021-05-28 13:20:59.9490 Info Loading assembly: NLog.Web.AspNetCore
2021-05-28 13:20:59.9968 Info Adding target FileTarget(Name=alldata)
2021-05-28 13:21:00.0089 Info Adding target FileTarget(Name=otherFile-web)
2021-05-28 13:21:00.0428 Info Validating config: TargetNames=alldata, ConfigItems=44, FilePath=D:\Profiles\vinekumar\source\repos\WebAPI\WebAPI\bin\Debug\netcoreapp3.1\NLog.config
2021-05-28 13:21:00.0574 Warn Unused target detected. Add a rule for this target to the configuration. TargetName: otherFile-web
2021-05-28 13:21:00.0767 Info Configuration initialized.
2021-05-28 13:21:00.0848 Info NLog, Version=4.0.0.0, Culture=neutral, PublicKeyToken=5120e14c03d0593c. File version: 4.7.8.12686. Product version: 4.7.8+1a738710a3e2974972abafd94d9df40f6b58035f. GlobalAssemblyCache: False
2021-05-28 13:21:01.4291 Info AppDomain Shutting down. Logger closing...
2021-05-28 13:21:01.4483 Info Logger has been shut down.
2021-05-28 13:21:30.8405 Info Message Template Auto Format enabled
2021-05-28 13:21:30.8562 Info Loading assembly: NLog.Web.AspNetCore
2021-05-28 13:21:30.9008 Info Adding target FileTarget(Name=alldata)
2021-05-28 13:21:30.9008 Info Adding target FileTarget(Name=otherFile-web)
2021-05-28 13:21:30.9402 Info Validating config: TargetNames=alldata, ConfigItems=44, FilePath=D:\Profiles\vinekumar\source\repos\WebAPI\WebAPI\bin\Debug\netcoreapp3.1\NLog.config
2021-05-28 13:21:30.9525 Warn Unused target detected. Add a rule for this target to the configuration. TargetName: otherFile-web
2021-05-28 13:21:30.9684 Info Configuration initialized.
2021-05-28 13:21:30.9746 Info NLog, Version=4.0.0.0, Culture=neutral, PublicKeyToken=5120e14c03d0593c. File version: 4.7.8.12686. Product version: 4.7.8+1a738710a3e2974972abafd94d9df40f6b58035f. GlobalAssemblyCache: False
2021-05-28 13:21:32.2254 Info AppDomain Shutting down. Logger closing...
2021-05-28 13:21:32.2660 Info Logger has been shut down.
2021-05-28 13:21:59.5074 Info Message Template Auto Format enabled
2021-05-28 13:21:59.5269 Info Loading assembly: NLog.Web.AspNetCore
2021-05-28 13:21:59.5734 Info Adding target FileTarget(Name=alldata)
2021-05-28 13:21:59.5734 Info Adding target FileTarget(Name=otherFile-web)
2021-05-28 13:21:59.6124 Info Validating config: TargetNames=alldata, ConfigItems=44, FilePath=D:\Profiles\vinekumar\source\repos\WebAPI\WebAPI\bin\Debug\netcoreapp3.1\NLog.config
2021-05-28 13:21:59.6269 Warn Unused target detected. Add a rule for this target to the configuration. TargetName: otherFile-web
2021-05-28 13:21:59.6430 Info Configuration initialized.
2021-05-28 13:21:59.6501 Info NLog, Version=4.0.0.0, Culture=neutral, PublicKeyToken=5120e14c03d0593c. File version: 4.7.8.12686. Product version: 4.7.8+1a738710a3e2974972abafd94d9df40f6b58035f. GlobalAssemblyCache: False
2021-05-28 13:22:00.8244 Info AppDomain Shutting down. Logger closing...
2021-05-28 13:22:00.8430 Info Logger has been shut down.
2021-05-28 13:23:17.3984 Info Message Template Auto Format enabled
2021-05-28 13:23:17.4189 Info Loading assembly: NLog.Web.AspNetCore
2021-05-28 13:23:17.4785 Info Adding target FileTarget(Name=alldata)
2021-05-28 13:23:17.4785 Info Adding target FileTarget(Name=otherFile-web)
2021-05-28 13:23:17.5270 Info Validating config: TargetNames=alldata, ConfigItems=44, FilePath=D:\Profiles\vinekumar\source\repos\WebAPI\WebAPI\bin\Debug\netcoreapp3.1\NLog.config
2021-05-28 13:23:17.5428 Warn Unused target detected. Add a rule for this target to the configuration. TargetName: otherFile-web
2021-05-28 13:23:17.5599 Info Configuration initialized.
2021-05-28 13:23:17.5666 Info NLog, Version=4.0.0.0, Culture=neutral, PublicKeyToken=5120e14c03d0593c. File version: 4.7.8.12686. Product version: 4.7.8+1a738710a3e2974972abafd94d9df40f6b58035f. GlobalAssemblyCache: False
2021-05-28 13:23:20.5766 Info AppDomain Shutting down. Logger closing...
2021-05-28 13:23:20.5963 Info Logger has been shut down.
2021-05-28 13:24:13.1460 Info Message Template Auto Format enabled
2021-05-28 13:24:13.1634 Info Loading assembly: NLog.Web.AspNetCore
2021-05-28 13:24:13.2331 Info Adding target FileTarget(Name=alldata)
2021-05-28 13:24:13.2428 Info Adding target FileTarget(Name=otherFile-web)
2021-05-28 13:24:13.2851 Info Validating config: TargetNames=alldata, ConfigItems=44, FilePath=D:\Profiles\vinekumar\source\repos\WebAPI\WebAPI\bin\Debug\netcoreapp3.1\NLog.config
2021-05-28 13:24:13.3007 Warn Unused target detected. Add a rule for this target to the configuration. TargetName: otherFile-web
2021-05-28 13:24:13.3276 Info Configuration initialized.
2021-05-28 13:24:13.3344 Info NLog, Version=4.0.0.0, Culture=neutral, PublicKeyToken=5120e14c03d0593c. File version: 4.7.8.12686. Product version: 4.7.8+1a738710a3e2974972abafd94d9df40f6b58035f. GlobalAssemblyCache: False
2021-05-28 13:24:14.6039 Info AppDomain Shutting down. Logger closing...
2021-05-28 13:24:14.6219 Info Logger has been shut down.
2021-05-28 13:24:53.5512 Info Message Template Auto Format enabled
2021-05-28 13:24:53.5775 Info Loading assembly: NLog.Web.AspNetCore
2021-05-28 13:24:53.6251 Info Adding target FileTarget(Name=alldata)
2021-05-28 13:24:53.6324 Info Adding target FileTarget(Name=otherFile-web)
2021-05-28 13:24:53.6734 Info Validating config: TargetNames=alldata, ConfigItems=44, FilePath=D:\Profiles\vinekumar\source\repos\WebAPI\WebAPI\bin\Debug\netcoreapp3.1\NLog.config
2021-05-28 13:24:53.6886 Warn Unused target detected. Add a rule for this target to the configuration. TargetName: otherFile-web
2021-05-28 13:24:53.7069 Info Configuration initialized.
2021-05-28 13:24:53.7131 Info NLog, Version=4.0.0.0, Culture=neutral, PublicKeyToken=5120e14c03d0593c. File version: 4.7.8.12686. Product version: 4.7.8+1a738710a3e2974972abafd94d9df40f6b58035f. GlobalAssemblyCache: False
2021-05-28 13:24:55.6756 Info AppDomain Shutting down. Logger closing...
2021-05-28 13:24:55.6935 Info Logger has been shut down.
2021-05-28 14:13:43.3342 Info Message Template Auto Format enabled
2021-05-28 14:13:43.3564 Info Loading assembly: NLog.Web.AspNetCore
2021-05-28 14:13:43.4056 Info Adding target FileTarget(Name=alldata)
2021-05-28 14:13:43.4140 Info Adding target FileTarget(Name=otherFile-web)
2021-05-28 14:13:43.4467 Info Validating config: TargetNames=alldata, ConfigItems=44, FilePath=D:\Profiles\vinekumar\source\repos\WebAPI\WebAPI\bin\Debug\netcoreapp3.1\NLog.config
2021-05-28 14:13:43.4587 Warn Unused target detected. Add a rule for this target to the configuration. TargetName: otherFile-web
2021-05-28 14:13:43.4755 Info Configuration initialized.
2021-05-28 14:13:43.4755 Info NLog, Version=4.0.0.0, Culture=neutral, PublicKeyToken=5120e14c03d0593c. File version: 4.7.8.12686. Product version: 4.7.8+1a738710a3e2974972abafd94d9df40f6b58035f. GlobalAssemblyCache: False
2021-05-28 14:13:44.5866 Info AppDomain Shutting down. Logger closing...
2021-05-28 14:13:44.6054 Info Logger has been shut down.
2021-05-28 14:14:09.6265 Info Message Template Auto Format enabled
2021-05-28 14:14:09.6423 Info Loading assembly: NLog.Web.AspNetCore
2021-05-28 14:14:09.6868 Info Adding target FileTarget(Name=alldata)
2021-05-28 14:14:09.6942 Info Adding target FileTarget(Name=otherFile-web)
2021-05-28 14:14:09.7248 Info Validating config: TargetNames=alldata, ConfigItems=44, FilePath=D:\Profiles\vinekumar\source\repos\WebAPI\WebAPI\bin\Debug\netcoreapp3.1\NLog.config
2021-05-28 14:14:09.7248 Warn Unused target detected. Add a rule for this target to the configuration. TargetName: otherFile-web
2021-05-28 14:14:09.7534 Info Configuration initialized.
2021-05-28 14:14:09.7600 Info NLog, Version=4.0.0.0, Culture=neutral, PublicKeyToken=5120e14c03d0593c. File version: 4.7.8.12686. Product version: 4.7.8+1a738710a3e2974972abafd94d9df40f6b58035f. GlobalAssemblyCache: False
2021-05-28 14:14:11.8639 Info AppDomain Shutting down. Logger closing...
2021-05-28 14:14:11.8828 Info Logger has been shut down.
2021-05-28 14:23:30.2933 Info Message Template Auto Format enabled
2021-05-28 14:23:30.3184 Info Loading assembly: NLog.Web.AspNetCore
2021-05-28 14:23:30.4040 Info Adding target FileTarget(Name=alldata)
2021-05-28 14:23:30.4246 Info Adding target FileTarget(Name=otherFile-web)
2021-05-28 14:23:30.4695 Info Validating config: TargetNames=alldata, ConfigItems=44, FilePath=D:\Profiles\vinekumar\source\repos\WebAPI\WebAPI\bin\Debug\netcoreapp3.1\NLog.config
2021-05-28 14:23:30.4897 Warn Unused target detected. Add a rule for this target to the configuration. TargetName: otherFile-web
2021-05-28 14:23:30.5257 Info Configuration initialized.
2021-05-28 14:23:30.5257 Info NLog, Version=4.0.0.0, Culture=neutral, PublicKeyToken=5120e14c03d0593c. File version: 4.7.8.12686. Product version: 4.7.8+1a738710a3e2974972abafd94d9df40f6b58035f. GlobalAssemblyCache: False
2021-05-28 14:26:29.9359 Info Message Template Auto Format enabled
2021-05-28 14:26:29.9588 Info Loading assembly: NLog.Web.AspNetCore
2021-05-28 14:26:30.0142 Info Adding target FileTarget(Name=alldata)
2021-05-28 14:26:30.0142 Info Adding target FileTarget(Name=otherFile-web)
2021-05-28 14:26:30.0592 Info Validating config: TargetNames=alldata, ConfigItems=44, FilePath=D:\Profiles\vinekumar\source\repos\WebAPI\WebAPI\bin\Debug\netcoreapp3.1\NLog.config
2021-05-28 14:26:30.0728 Warn Unused target detected. Add a rule for this target to the configuration. TargetName: otherFile-web
2021-05-28 14:26:30.0934 Info Configuration initialized.
2021-05-28 14:26:30.0934 Info NLog, Version=4.0.0.0, Culture=neutral, PublicKeyToken=5120e14c03d0593c. File version: 4.7.8.12686. Product version: 4.7.8+1a738710a3e2974972abafd94d9df40f6b58035f. GlobalAssemblyCache: False
2021-05-28 14:48:56.6371 Info Message Template Auto Format enabled
2021-05-28 14:48:56.6656 Info Loading assembly: NLog.Web.AspNetCore
2021-05-28 14:48:56.7328 Info Adding target FileTarget(Name=alldata)
2021-05-28 14:48:56.7480 Info Adding target FileTarget(Name=otherFile-web)
2021-05-28 14:48:56.7922 Info Validating config: TargetNames=alldata, ConfigItems=44, FilePath=D:\Profiles\vinekumar\source\repos\WebAPI\WebAPI\bin\Debug\netcoreapp3.1\NLog.config
2021-05-28 14:48:56.8200 Warn Unused target detected. Add a rule for this target to the configuration. TargetName: otherFile-web
2021-05-28 14:48:56.8464 Info Configuration initialized.
2021-05-28 14:48:56.8576 Info NLog, Version=4.0.0.0, Culture=neutral, PublicKeyToken=5120e14c03d0593c. File version: 4.7.8.12686. Product version: 4.7.8+1a738710a3e2974972abafd94d9df40f6b58035f. GlobalAssemblyCache: False
2021-05-28 14:57:24.7614 Info Message Template Auto Format enabled
2021-05-28 14:57:24.7926 Info Loading assembly: NLog.Web.AspNetCore
2021-05-28 14:57:24.8579 Info Adding target FileTarget(Name=alldata)
2021-05-28 14:57:24.8867 Info Adding target FileTarget(Name=otherFile-web)
2021-05-28 14:57:24.9303 Info Validating config: TargetNames=alldata, ConfigItems=44, FilePath=D:\Profiles\vinekumar\source\repos\WebAPI\WebAPI\bin\Debug\netcoreapp3.1\NLog.config
2021-05-28 14:57:24.9478 Warn Unused target detected. Add a rule for this target to the configuration. TargetName: otherFile-web
2021-05-28 14:57:24.9760 Info Configuration initialized.
2021-05-28 14:57:24.9760 Info NLog, Version=4.0.0.0, Culture=neutral, PublicKeyToken=5120e14c03d0593c. File version: 4.7.8.12686. Product version: 4.7.8+1a738710a3e2974972abafd94d9df40f6b58035f. GlobalAssemblyCache: False
2021-05-28 14:59:47.8237 Info Message Template Auto Format enabled
2021-05-28 14:59:47.8462 Info Loading assembly: NLog.Web.AspNetCore
2021-05-28 14:59:47.9023 Info Adding target FileTarget(Name=alldata)
2021-05-28 14:59:47.9023 Info Adding target FileTarget(Name=otherFile-web)
2021-05-28 14:59:47.9501 Info Validating config: TargetNames=alldata, ConfigItems=44, FilePath=D:\Profiles\vinekumar\source\repos\WebAPI\WebAPI\bin\Debug\netcoreapp3.1\NLog.config
2021-05-28 14:59:47.9677 Warn Unused target detected. Add a rule for this target to the configuration. TargetName: otherFile-web
2021-05-28 14:59:47.9880 Info Configuration initialized.
2021-05-28 14:59:48.0014 Info NLog, Version=4.0.0.0, Culture=neutral, PublicKeyToken=5120e14c03d0593c. File version: 4.7.8.12686. Product version: 4.7.8+1a738710a3e2974972abafd94d9df40f6b58035f. GlobalAssemblyCache: False
2021-05-28 15:01:44.4006 Info Message Template Auto Format enabled
2021-05-28 15:01:44.4226 Info Loading assembly: NLog.Web.AspNetCore
2021-05-28 15:01:44.4958 Info Adding target FileTarget(Name=alldata)
2021-05-28 15:01:44.5043 Info Adding target FileTarget(Name=otherFile-web)
2021-05-28 15:01:44.5840 Info Validating config: TargetNames=alldata, ConfigItems=44, FilePath=D:\Profiles\vinekumar\source\repos\WebAPI\WebAPI\bin\Debug\netcoreapp3.1\NLog.config
2021-05-28 15:01:44.6115 Warn Unused target detected. Add a rule for this target to the configuration. TargetName: otherFile-web
2021-05-28 15:01:44.6302 Info Configuration initialized.
2021-05-28 15:01:44.6397 Info NLog, Version=4.0.0.0, Culture=neutral, PublicKeyToken=5120e14c03d0593c. File version: 4.7.8.12686. Product version: 4.7.8+1a738710a3e2974972abafd94d9df40f6b58035f. GlobalAssemblyCache: False
2021-05-28 16:27:03.5240 Info Message Template Auto Format enabled
2021-05-28 16:27:03.6294 Info Loading assembly: NLog.Web.AspNetCore
2021-05-28 16:27:03.7430 Info Adding target FileTarget(Name=alldata)
2021-05-28 16:27:03.7430 Info Adding target FileTarget(Name=otherFile-web)
2021-05-28 16:27:03.7985 Info Validating config: TargetNames=alldata, ConfigItems=44, FilePath=D:\Profiles\vinekumar\source\repos\WebAPI\WebAPI\bin\Debug\netcoreapp3.1\NLog.config
2021-05-28 16:27:03.8146 Warn Unused target detected. Add a rule for this target to the configuration. TargetName: otherFile-web
2021-05-28 16:27:03.8535 Info Configuration initialized.
2021-05-28 16:27:03.8535 Info NLog, Version=4.0.0.0, Culture=neutral, PublicKeyToken=5120e14c03d0593c. File version: 4.7.8.12686. Product version: 4.7.8+1a738710a3e2974972abafd94d9df40f6b58035f. GlobalAssemblyCache: False
2021-05-28 16:44:15.6549 Info Message Template Auto Format enabled
2021-05-28 16:44:15.6768 Info Loading assembly: NLog.Web.AspNetCore
2021-05-28 16:44:15.7418 Info Adding target FileTarget(Name=alldata)
2021-05-28 16:44:15.7555 Info Adding target FileTarget(Name=otherFile-web)
2021-05-28 16:44:15.7946 Info Validating config: TargetNames=alldata, ConfigItems=44, FilePath=D:\Profiles\vinekumar\source\repos\WebAPI\WebAPI\bin\Debug\netcoreapp3.1\NLog.config
2021-05-28 16:44:15.8096 Warn Unused target detected. Add a rule for this target to the configuration. TargetName: otherFile-web
2021-05-28 16:44:15.8296 Info Configuration initialized.
2021-05-28 16:44:15.8454 Info NLog, Version=4.0.0.0, Culture=neutral, PublicKeyToken=5120e14c03d0593c. File version: 4.7.8.12686. Product version: 4.7.8+1a738710a3e2974972abafd94d9df40f6b58035f. GlobalAssemblyCache: False
2021-05-30 09:47:03.9071 Info Message Template Auto Format enabled
2021-05-30 09:47:03.9265 Info Loading assembly: NLog.Web.AspNetCore
2021-05-30 09:47:03.9738 Info Adding target FileTarget(Name=alldata)
2021-05-30 09:47:03.9738 Info Adding target FileTarget(Name=otherFile-web)
2021-05-30 09:47:04.0049 Info Validating config: TargetNames=alldata, ConfigItems=44, FilePath=D:\Profiles\vinekumar\source\repos\WebAPI\WebAPI\bin\Debug\netcoreapp3.1\NLog.config
2021-05-30 09:47:04.0162 Warn Unused target detected. Add a rule for this target to the configuration. TargetName: otherFile-web
2021-05-30 09:47:04.0321 Info Configuration initialized.
2021-05-30 09:47:04.0321 Info NLog, Version=4.0.0.0, Culture=neutral, PublicKeyToken=5120e14c03d0593c. File version: 4.7.8.12686. Product version: 4.7.8+1a738710a3e2974972abafd94d9df40f6b58035f. GlobalAssemblyCache: False
2021-05-30 09:47:05.9494 Info AppDomain Shutting down. Logger closing...
2021-05-30 09:47:05.9668 Info Logger has been shut down.
2021-05-30 09:47:21.5129 Info Message Template Auto Format enabled
2021-05-30 09:47:21.5287 Info Loading assembly: NLog.Web.AspNetCore
2021-05-30 09:47:21.5819 Info Adding target FileTarget(Name=alldata)
2021-05-30 09:47:21.5819 Info Adding target FileTarget(Name=otherFile-web)
2021-05-30 09:47:21.6304 Info Validating config: TargetNames=alldata, ConfigItems=44, FilePath=D:\Profiles\vinekumar\source\repos\WebAPI\WebAPI\bin\Debug\netcoreapp3.1\NLog.config
2021-05-30 09:47:21.6447 Warn Unused target detected. Add a rule for this target to the configuration. TargetName: otherFile-web
2021-05-30 09:47:21.6629 Info Configuration initialized.
2021-05-30 09:47:21.6629 Info NLog, Version=4.0.0.0, Culture=neutral, PublicKeyToken=5120e14c03d0593c. File version: 4.7.8.12686. Product version: 4.7.8+1a738710a3e2974972abafd94d9df40f6b58035f. GlobalAssemblyCache: False
2021-05-30 09:47:23.4109 Info AppDomain Shutting down. Logger closing...
2021-05-30 09:47:23.4349 Info Logger has been shut down.
2021-05-30 09:48:19.4471 Info Message Template Auto Format enabled
2021-05-30 09:48:19.4630 Info Loading assembly: NLog.Web.AspNetCore
2021-05-30 09:48:19.5110 Info Adding target FileTarget(Name=alldata)
2021-05-30 09:48:19.5209 Info Adding target FileTarget(Name=otherFile-web)
2021-05-30 09:48:19.5510 Info Validating config: TargetNames=alldata, ConfigItems=44, FilePath=D:\Profiles\vinekumar\source\repos\WebAPI\WebAPI\bin\Debug\netcoreapp3.1\NLog.config
2021-05-30 09:48:19.5637 Warn Unused target detected. Add a rule for this target to the configuration. TargetName: otherFile-web
2021-05-30 09:48:19.5795 Info Configuration initialized.
2021-05-30 09:48:19.5795 Info NLog, Version=4.0.0.0, Culture=neutral, PublicKeyToken=5120e14c03d0593c. File version: 4.7.8.12686. Product version: 4.7.8+1a738710a3e2974972abafd94d9df40f6b58035f. GlobalAssemblyCache: False
2021-05-30 09:48:21.2682 Info AppDomain Shutting down. Logger closing...
2021-05-30 09:48:21.2875 Info Logger has been shut down.
2021-05-30 09:48:32.3696 Info Message Template Auto Format enabled
2021-05-30 09:48:32.3863 Info Loading assembly: NLog.Web.AspNetCore
2021-05-30 09:48:32.4333 Info Adding target FileTarget(Name=alldata)
2021-05-30 09:48:32.4422 Info Adding target FileTarget(Name=otherFile-web)
2021-05-30 09:48:32.4735 Info Validating config: TargetNames=alldata, ConfigItems=44, FilePath=D:\Profiles\vinekumar\source\repos\WebAPI\WebAPI\bin\Debug\netcoreapp3.1\NLog.config
2021-05-30 09:48:32.4885 Warn Unused target detected. Add a rule for this target to the configuration. TargetName: otherFile-web
2021-05-30 09:48:32.5047 Info Configuration initialized.
2021-05-30 09:48:32.5047 Info NLog, Version=4.0.0.0, Culture=neutral, PublicKeyToken=5120e14c03d0593c. File version: 4.7.8.12686. Product version: 4.7.8+1a738710a3e2974972abafd94d9df40f6b58035f. GlobalAssemblyCache: False
2021-05-30 09:48:34.2888 Info AppDomain Shutting down. Logger closing...
2021-05-30 09:48:34.3096 Info Logger has been shut down.
2021-05-30 14:39:34.8580 Info Message Template Auto Format enabled
2021-05-30 14:39:34.8838 Info Loading assembly: NLog.Web.AspNetCore
2021-05-30 14:39:34.9425 Info Adding target FileTarget(Name=alldata)
2021-05-30 14:39:34.9532 Info Adding target FileTarget(Name=otherFile-web)
2021-05-30 14:39:34.9883 Info Validating config: TargetNames=alldata, ConfigItems=44, FilePath=D:\Profiles\vinekumar\source\repos\WebAPI\WebAPI\bin\Debug\netcoreapp3.1\NLog.config
2021-05-30 14:39:35.0020 Warn Unused target detected. Add a rule for this target to the configuration. TargetName: otherFile-web
2021-05-30 14:39:35.0255 Info Configuration initialized.
2021-05-30 14:39:35.0324 Info NLog, Version=4.0.0.0, Culture=neutral, PublicKeyToken=5120e14c03d0593c. File version: 4.7.8.12686. Product version: 4.7.8+1a738710a3e2974972abafd94d9df40f6b58035f. GlobalAssemblyCache: False
2021-05-30 15:26:27.1044 Info Message Template Auto Format enabled
2021-05-30 15:26:27.1296 Info Loading assembly: NLog.Web.AspNetCore
2021-05-30 15:26:27.1915 Info Adding target FileTarget(Name=alldata)
2021-05-30 15:26:27.2015 Info Adding target FileTarget(Name=otherFile-web)
2021-05-30 15:26:27.2361 Info Validating config: TargetNames=alldata, ConfigItems=44, FilePath=D:\Profiles\vinekumar\source\repos\WebAPI\WebAPI\bin\Debug\netcoreapp3.1\NLog.config
2021-05-30 15:26:27.2561 Warn Unused target detected. Add a rule for this target to the configuration. TargetName: otherFile-web
2021-05-30 15:26:27.2757 Info Configuration initialized.
2021-05-30 15:26:27.2757 Info NLog, Version=4.0.0.0, Culture=neutral, PublicKeyToken=5120e14c03d0593c. File version: 4.7.8.12686. Product version: 4.7.8+1a738710a3e2974972abafd94d9df40f6b58035f. GlobalAssemblyCache: False
2021-05-30 15:38:11.6311 Info Message Template Auto Format enabled
2021-05-30 15:38:11.6553 Info Loading assembly: NLog.Web.AspNetCore
2021-05-30 15:38:11.7253 Info Adding target FileTarget(Name=alldata)
2021-05-30 15:38:11.7253 Info Adding target FileTarget(Name=otherFile-web)
2021-05-30 15:38:11.7758 Info Validating config: TargetNames=alldata, ConfigItems=44, FilePath=D:\Profiles\vinekumar\source\repos\WebAPI\WebAPI\bin\Debug\netcoreapp3.1\NLog.config
2021-05-30 15:38:11.7926 Warn Unused target detected. Add a rule for this target to the configuration. TargetName: otherFile-web
2021-05-30 15:38:11.8174 Info Configuration initialized.
2021-05-30 15:38:11.8174 Info NLog, Version=4.0.0.0, Culture=neutral, PublicKeyToken=5120e14c03d0593c. File version: 4.7.8.12686. Product version: 4.7.8+1a738710a3e2974972abafd94d9df40f6b58035f. GlobalAssemblyCache: False
2021-05-30 15:48:50.0920 Info Message Template Auto Format enabled
2021-05-30 15:48:50.1205 Info Loading assembly: NLog.Web.AspNetCore
2021-05-30 15:48:50.1710 Info Adding target FileTarget(Name=alldata)
2021-05-30 15:48:50.1710 Info Adding target FileTarget(Name=otherFile-web)
2021-05-30 15:48:50.2138 Info Validating config: TargetNames=alldata, ConfigItems=44, FilePath=D:\Profiles\vinekumar\source\repos\WebAPI\WebAPI\bin\Debug\netcoreapp3.1\NLog.config
2021-05-30 15:48:50.2541 Warn Unused target detected. Add a rule for this target to the configuration. TargetName: otherFile-web
2021-05-30 15:48:50.2804 Info Configuration initialized.
2021-05-30 15:48:50.2804 Info NLog, Version=4.0.0.0, Culture=neutral, PublicKeyToken=5120e14c03d0593c. File version: 4.7.8.12686. Product version: 4.7.8+1a738710a3e2974972abafd94d9df40f6b58035f. GlobalAssemblyCache: False
2021-05-30 15:49:19.5578 Info Message Template Auto Format enabled
2021-05-30 15:49:19.5765 Info Loading assembly: NLog.Web.AspNetCore
2021-05-30 15:49:19.6289 Info Adding target FileTarget(Name=alldata)
2021-05-30 15:49:19.6289 Info Adding target FileTarget(Name=otherFile-web)
2021-05-30 15:49:19.6692 Info Validating config: TargetNames=alldata, ConfigItems=44, FilePath=D:\Profiles\vinekumar\source\repos\WebAPI\WebAPI\bin\Debug\netcoreapp3.1\NLog.config
2021-05-30 15:49:19.6848 Warn Unused target detected. Add a rule for this target to the configuration. TargetName: otherFile-web
2021-05-30 15:49:19.7070 Info Configuration initialized.
2021-05-30 15:49:19.7070 Info NLog, Version=4.0.0.0, Culture=neutral, PublicKeyToken=5120e14c03d0593c. File version: 4.7.8.12686. Product version: 4.7.8+1a738710a3e2974972abafd94d9df40f6b58035f. GlobalAssemblyCache: False
2021-05-31 10:06:55.1092 Info Message Template Auto Format enabled
2021-05-31 10:06:55.1507 Info Loading assembly: NLog.Web.AspNetCore
2021-05-31 10:06:55.2365 Info Adding target FileTarget(Name=alldata)
2021-05-31 10:06:55.2478 Info Adding target FileTarget(Name=otherFile-web)
2021-05-31 10:06:55.2922 Info Validating config: TargetNames=alldata, ConfigItems=44, FilePath=D:\Profiles\vinekumar\source\repos\WebAPI\WebAPI\bin\Debug\netcoreapp3.1\NLog.config
2021-05-31 10:06:55.3090 Warn Unused target detected. Add a rule for this target to the configuration. TargetName: otherFile-web
2021-05-31 10:06:55.3316 Info Configuration initialized.
2021-05-31 10:06:55.3434 Info NLog, Version=4.0.0.0, Culture=neutral, PublicKeyToken=5120e14c03d0593c. File version: 4.7.8.12686. Product version: 4.7.8+1a738710a3e2974972abafd94d9df40f6b58035f. GlobalAssemblyCache: False
2021-05-31 13:53:50.8748 Info Message Template Auto Format enabled
2021-05-31 13:53:50.9880 Info Loading assembly: NLog.Web.AspNetCore
2021-05-31 13:53:51.0615 Info Adding target FileTarget(Name=alldata)
2021-05-31 13:53:51.0757 Info Adding target FileTarget(Name=otherFile-web)
2021-05-31 13:53:51.1257 Info Validating config: TargetNames=alldata, ConfigItems=44, FilePath=D:\Profiles\vinekumar\source\repos\WebAPI\WebAPI\bin\Debug\netcoreapp3.1\NLog.config
2021-05-31 13:53:51.1494 Warn Unused target detected. Add a rule for this target to the configuration. TargetName: otherFile-web
2021-05-31 13:53:51.1869 Info Configuration initialized.
2021-05-31 13:53:51.1948 Info NLog, Version=4.0.0.0, Culture=neutral, PublicKeyToken=5120e14c03d0593c. File version: 4.7.8.12686. Product version: 4.7.8+1a738710a3e2974972abafd94d9df40f6b58035f. GlobalAssemblyCache: False
2021-06-01 12:34:04.0511 Info Message Template Auto Format enabled
2021-06-01 12:34:04.0923 Info Loading assembly: NLog.Web.AspNetCore
2021-06-01 12:34:04.1551 Info Adding target FileTarget(Name=alldata)
2021-06-01 12:34:04.1662 Info Adding target FileTarget(Name=otherFile-web)
2021-06-01 12:34:04.2242 Info Validating config: TargetNames=alldata, ConfigItems=44, FilePath=D:\Profiles\vinekumar\source\repos\WebAPI\WebAPI\bin\Debug\netcoreapp3.1\NLog.config
2021-06-01 12:34:04.2429 Warn Unused target detected. Add a rule for this target to the configuration. TargetName: otherFile-web
2021-06-01 12:34:04.2636 Info Configuration initialized.
2021-06-01 12:34:04.2758 Info NLog, Version=4.0.0.0, Culture=neutral, PublicKeyToken=5120e14c03d0593c. File version: 4.7.8.12686. Product version: 4.7.8+1a738710a3e2974972abafd94d9df40f6b58035f. GlobalAssemblyCache: False
2021-06-01 16:46:33.7020 Info Message Template Auto Format enabled
2021-06-01 16:46:33.7249 Info Loading assembly: NLog.Web.AspNetCore
2021-06-01 16:46:33.8030 Info Adding target FileTarget(Name=alldata)
2021-06-01 16:46:33.8207 Info Adding target FileTarget(Name=otherFile-web)
2021-06-01 16:46:33.8853 Info Validating config: TargetNames=alldata, ConfigItems=44, FilePath=D:\Profiles\vinekumar\source\repos\WebAPI\WebAPI\bin\Debug\netcoreapp3.1\NLog.config
2021-06-01 16:46:33.9014 Warn Unused target detected. Add a rule for this target to the configuration. TargetName: otherFile-web
2021-06-01 16:46:33.9269 Info Configuration initialized.
2021-06-01 16:46:33.9391 Info NLog, Version=4.0.0.0, Culture=neutral, PublicKeyToken=5120e14c03d0593c. File version: 4.7.8.12686. Product version: 4.7.8+1a738710a3e2974972abafd94d9df40f6b58035f. GlobalAssemblyCache: False
2021-06-05 16:45:03.2446 Info Message Template Auto Format enabled
2021-06-05 16:45:03.2757 Info Loading assembly: NLog.Web.AspNetCore
2021-06-05 16:45:03.3533 Info Adding target FileTarget(Name=alldata)
2021-06-05 16:45:03.3673 Info Adding target FileTarget(Name=otherFile-web)
2021-06-05 16:45:03.4139 Info Validating config: TargetNames=alldata, ConfigItems=44, FilePath=D:\Profiles\vinekumar\source\repos\WebAPI\WebAPI\bin\Debug\netcoreapp3.1\NLog.config
2021-06-05 16:45:03.4332 Warn Unused target detected. Add a rule for this target to the configuration. TargetName: otherFile-web
2021-06-05 16:45:03.4584 Info Configuration initialized.
2021-06-05 16:45:03.4737 Info NLog, Version=4.0.0.0, Culture=neutral, PublicKeyToken=5120e14c03d0593c. File version: 4.7.8.12686. Product version: 4.7.8+1a738710a3e2974972abafd94d9df40f6b58035f. GlobalAssemblyCache: False
